<?xml version="1.0" encoding="utf-8"?>
<!DOCTYPE eagle SYSTEM "eagle.dtd">
<eagle version="7.2.0">
<drawing>
<settings>
<setting alwaysvectorfont="no"/>
<setting verticaltext="up"/>
</settings>
<grid distance="0.1" unitdist="inch" unit="inch" style="lines" multiple="1" display="no" altdistance="0.01" altunitdist="inch" altunit="inch"/>
<layers>
<layer number="1" name="Top" color="4" fill="1" visible="yes" active="yes"/>
<layer number="2" name="Route2" color="1" fill="3" visible="no" active="no"/>
<layer number="3" name="Route3" color="4" fill="3" visible="no" active="no"/>
<layer number="4" name="Route4" color="1" fill="4" visible="no" active="no"/>
<layer number="5" name="Route5" color="4" fill="4" visible="no" active="no"/>
<layer number="6" name="Route6" color="1" fill="8" visible="no" active="no"/>
<layer number="7" name="Route7" color="4" fill="8" visible="no" active="no"/>
<layer number="8" name="Route8" color="1" fill="2" visible="no" active="no"/>
<layer number="9" name="Route9" color="4" fill="2" visible="no" active="no"/>
<layer number="10" name="Route10" color="1" fill="7" visible="no" active="no"/>
<layer number="11" name="Route11" color="4" fill="7" visible="no" active="no"/>
<layer number="12" name="Route12" color="1" fill="5" visible="no" active="no"/>
<layer number="13" name="Route13" color="4" fill="5" visible="no" active="no"/>
<layer number="14" name="Route14" color="1" fill="6" visible="no" active="no"/>
<layer number="15" name="Route15" color="4" fill="6" visible="no" active="no"/>
<layer number="16" name="Bottom" color="1" fill="1" visible="yes" active="yes"/>
<layer number="17" name="Pads" color="2" fill="1" visible="yes" active="yes"/>
<layer number="18" name="Vias" color="2" fill="1" visible="yes" active="yes"/>
<layer number="19" name="Unrouted" color="6" fill="1" visible="yes" active="yes"/>
<layer number="20" name="Dimension" color="15" fill="1" visible="yes" active="yes"/>
<layer number="21" name="tPlace" color="7" fill="1" visible="yes" active="yes"/>
<layer number="22" name="bPlace" color="7" fill="1" visible="yes" active="yes"/>
<layer number="23" name="tOrigins" color="15" fill="1" visible="yes" active="yes"/>
<layer number="24" name="bOrigins" color="15" fill="1" visible="yes" active="yes"/>
<layer number="25" name="tNames" color="7" fill="1" visible="yes" active="yes"/>
<layer number="26" name="bNames" color="7" fill="1" visible="yes" active="yes"/>
<layer number="27" name="tValues" color="7" fill="1" visible="yes" active="yes"/>
<layer number="28" name="bValues" color="7" fill="1" visible="yes" active="yes"/>
<layer number="29" name="tStop" color="7" fill="3" visible="yes" active="yes"/>
<layer number="30" name="bStop" color="7" fill="6" visible="yes" active="yes"/>
<layer number="31" name="tCream" color="7" fill="4" visible="yes" active="yes"/>
<layer number="32" name="bCream" color="7" fill="5" visible="yes" active="yes"/>
<layer number="33" name="tFinish" color="6" fill="3" visible="yes" active="yes"/>
<layer number="34" name="bFinish" color="6" fill="6" visible="yes" active="yes"/>
<layer number="35" name="tGlue" color="7" fill="4" visible="yes" active="yes"/>
<layer number="36" name="bGlue" color="7" fill="5" visible="yes" active="yes"/>
<layer number="37" name="tTest" color="7" fill="1" visible="yes" active="yes"/>
<layer number="38" name="bTest" color="7" fill="1" visible="yes" active="yes"/>
<layer number="39" name="tKeepout" color="4" fill="11" visible="yes" active="yes"/>
<layer number="40" name="bKeepout" color="1" fill="11" visible="yes" active="yes"/>
<layer number="41" name="tRestrict" color="4" fill="10" visible="yes" active="yes"/>
<layer number="42" name="bRestrict" color="1" fill="10" visible="yes" active="yes"/>
<layer number="43" name="vRestrict" color="2" fill="10" visible="yes" active="yes"/>
<layer number="44" name="Drills" color="7" fill="1" visible="yes" active="yes"/>
<layer number="45" name="Holes" color="7" fill="1" visible="yes" active="yes"/>
<layer number="46" name="Milling" color="3" fill="1" visible="yes" active="yes"/>
<layer number="47" name="Measures" color="7" fill="1" visible="yes" active="yes"/>
<layer number="48" name="Document" color="7" fill="1" visible="yes" active="yes"/>
<layer number="49" name="Reference" color="7" fill="1" visible="yes" active="yes"/>
<layer number="50" name="dxf" color="7" fill="1" visible="no" active="no"/>
<layer number="51" name="tDocu" color="7" fill="1" visible="yes" active="yes"/>
<layer number="52" name="bDocu" color="7" fill="1" visible="yes" active="yes"/>
<layer number="53" name="tGND_GNDA" color="7" fill="9" visible="no" active="no"/>
<layer number="54" name="bGND_GNDA" color="1" fill="9" visible="no" active="no"/>
<layer number="56" name="wert" color="7" fill="1" visible="no" active="no"/>
<layer number="57" name="tCAD" color="7" fill="1" visible="no" active="no"/>
<layer number="90" name="Modules" color="5" fill="1" visible="yes" active="yes"/>
<layer number="91" name="Nets" color="2" fill="1" visible="yes" active="yes"/>
<layer number="92" name="Busses" color="1" fill="1" visible="yes" active="yes"/>
<layer number="93" name="Pins" color="2" fill="1" visible="yes" active="yes"/>
<layer number="94" name="Symbols" color="4" fill="1" visible="yes" active="yes"/>
<layer number="95" name="Names" color="7" fill="1" visible="yes" active="yes"/>
<layer number="96" name="Values" color="7" fill="1" visible="yes" active="yes"/>
<layer number="97" name="Info" color="7" fill="1" visible="yes" active="yes"/>
<layer number="98" name="Guide" color="6" fill="1" visible="yes" active="yes"/>
<layer number="99" name="SpiceOrder" color="7" fill="1" visible="yes" active="yes"/>
<layer number="100" name="Muster" color="7" fill="1" visible="no" active="no"/>
<layer number="101" name="Patch_Top" color="12" fill="4" visible="yes" active="yes"/>
<layer number="102" name="Vscore" color="7" fill="1" visible="yes" active="yes"/>
<layer number="103" name="tMap" color="7" fill="1" visible="yes" active="yes"/>
<layer number="104" name="Name" color="16" fill="1" visible="yes" active="yes"/>
<layer number="105" name="tPlate" color="7" fill="1" visible="yes" active="yes"/>
<layer number="106" name="bPlate" color="7" fill="1" visible="yes" active="yes"/>
<layer number="107" name="Crop" color="7" fill="1" visible="yes" active="yes"/>
<layer number="108" name="tplace-old" color="10" fill="1" visible="yes" active="yes"/>
<layer number="109" name="ref-old" color="11" fill="1" visible="yes" active="yes"/>
<layer number="110" name="fp0" color="7" fill="1" visible="yes" active="yes"/>
<layer number="111" name="LPC17xx" color="7" fill="1" visible="yes" active="yes"/>
<layer number="112" name="tSilk" color="7" fill="1" visible="yes" active="yes"/>
<layer number="113" name="IDFDebug" color="4" fill="1" visible="yes" active="yes"/>
<layer number="116" name="Patch_BOT" color="9" fill="4" visible="yes" active="yes"/>
<layer number="121" name="_tsilk" color="7" fill="1" visible="yes" active="yes"/>
<layer number="122" name="_bsilk" color="7" fill="1" visible="yes" active="yes"/>
<layer number="123" name="tTestmark" color="7" fill="1" visible="yes" active="yes"/>
<layer number="124" name="bTestmark" color="7" fill="1" visible="yes" active="yes"/>
<layer number="125" name="_tNames" color="7" fill="1" visible="yes" active="yes"/>
<layer number="126" name="_bNames" color="7" fill="1" visible="yes" active="yes"/>
<layer number="127" name="_tValues" color="7" fill="1" visible="yes" active="yes"/>
<layer number="128" name="_bValues" color="7" fill="1" visible="yes" active="yes"/>
<layer number="131" name="tAdjust" color="7" fill="1" visible="yes" active="yes"/>
<layer number="132" name="bAdjust" color="7" fill="1" visible="yes" active="yes"/>
<layer number="144" name="Drill_legend" color="7" fill="1" visible="yes" active="yes"/>
<layer number="150" name="Notes" color="7" fill="1" visible="yes" active="yes"/>
<layer number="151" name="HeatSink" color="7" fill="1" visible="yes" active="yes"/>
<layer number="152" name="_bDocu" color="7" fill="1" visible="yes" active="yes"/>
<layer number="153" name="FabDoc1" color="7" fill="1" visible="yes" active="yes"/>
<layer number="154" name="FabDoc2" color="7" fill="1" visible="yes" active="yes"/>
<layer number="155" name="FabDoc3" color="7" fill="1" visible="yes" active="yes"/>
<layer number="199" name="Contour" color="7" fill="1" visible="yes" active="yes"/>
<layer number="200" name="200bmp" color="1" fill="10" visible="yes" active="yes"/>
<layer number="201" name="201bmp" color="2" fill="10" visible="yes" active="yes"/>
<layer number="202" name="202bmp" color="3" fill="10" visible="yes" active="yes"/>
<layer number="203" name="203bmp" color="4" fill="10" visible="yes" active="yes"/>
<layer number="204" name="204bmp" color="5" fill="10" visible="yes" active="yes"/>
<layer number="205" name="205bmp" color="6" fill="10" visible="yes" active="yes"/>
<layer number="206" name="206bmp" color="7" fill="10" visible="yes" active="yes"/>
<layer number="207" name="207bmp" color="8" fill="10" visible="yes" active="yes"/>
<layer number="208" name="208bmp" color="9" fill="10" visible="yes" active="yes"/>
<layer number="209" name="209bmp" color="7" fill="1" visible="yes" active="yes"/>
<layer number="210" name="210bmp" color="7" fill="1" visible="yes" active="yes"/>
<layer number="211" name="211bmp" color="7" fill="1" visible="yes" active="yes"/>
<layer number="212" name="212bmp" color="7" fill="1" visible="yes" active="yes"/>
<layer number="213" name="213bmp" color="7" fill="1" visible="yes" active="yes"/>
<layer number="214" name="214bmp" color="7" fill="1" visible="yes" active="yes"/>
<layer number="215" name="215bmp" color="7" fill="1" visible="yes" active="yes"/>
<layer number="216" name="216bmp" color="7" fill="1" visible="yes" active="yes"/>
<layer number="217" name="217bmp" color="18" fill="1" visible="no" active="no"/>
<layer number="218" name="218bmp" color="19" fill="1" visible="no" active="no"/>
<layer number="219" name="219bmp" color="20" fill="1" visible="no" active="no"/>
<layer number="220" name="220bmp" color="21" fill="1" visible="no" active="no"/>
<layer number="221" name="221bmp" color="22" fill="1" visible="no" active="no"/>
<layer number="222" name="222bmp" color="23" fill="1" visible="no" active="no"/>
<layer number="223" name="223bmp" color="24" fill="1" visible="no" active="no"/>
<layer number="224" name="224bmp" color="25" fill="1" visible="no" active="no"/>
<layer number="248" name="Housing" color="7" fill="1" visible="yes" active="yes"/>
<layer number="249" name="Edge" color="7" fill="1" visible="yes" active="yes"/>
<layer number="250" name="Descript" color="3" fill="1" visible="no" active="no"/>
<layer number="251" name="SMDround" color="12" fill="11" visible="no" active="no"/>
<layer number="254" name="cooling" color="7" fill="1" visible="yes" active="yes"/>
<layer number="255" name="routoute" color="7" fill="1" visible="yes" active="yes"/>
</layers>
<library>
<packages>
<package name="TQFP-64">
<wire x1="7.036" y1="7.036" x2="7.036" y2="-7.036" width="0.1524" layer="21"/>
<wire x1="7.036" y1="-7.036" x2="-7.036" y2="-7.036" width="0.1524" layer="21"/>
<wire x1="-7.036" y1="-7.036" x2="-7.036" y2="6.604" width="0.1524" layer="21"/>
<wire x1="-6.604" y1="7.036" x2="7.036" y2="7.036" width="0.1524" layer="21"/>
<wire x1="-7.036" y1="6.604" x2="-6.604" y2="7.036" width="0.1524" layer="21"/>
<circle x="-5.8801" y="5.8801" radius="0.5589" width="0.1524" layer="21"/>
<smd name="64" x="-6" y="7.8" dx="0.5588" dy="1.1938" layer="1"/>
<smd name="63" x="-5.2" y="7.8" dx="0.5588" dy="1.1938" layer="1"/>
<smd name="62" x="-4.4" y="7.8" dx="0.5588" dy="1.1938" layer="1"/>
<smd name="61" x="-3.6" y="7.8" dx="0.5588" dy="1.1938" layer="1"/>
<smd name="60" x="-2.8" y="7.8" dx="0.5588" dy="1.1938" layer="1"/>
<smd name="59" x="-2" y="7.8" dx="0.5588" dy="1.1938" layer="1"/>
<smd name="58" x="-1.2" y="7.8" dx="0.5588" dy="1.1938" layer="1"/>
<smd name="57" x="-0.4" y="7.8" dx="0.5588" dy="1.1938" layer="1"/>
<smd name="56" x="0.4" y="7.8" dx="0.5588" dy="1.1938" layer="1"/>
<smd name="55" x="1.2" y="7.8" dx="0.5588" dy="1.1938" layer="1"/>
<smd name="54" x="2" y="7.8" dx="0.5588" dy="1.1938" layer="1"/>
<smd name="53" x="2.8" y="7.8" dx="0.5588" dy="1.1938" layer="1"/>
<smd name="52" x="3.6" y="7.8" dx="0.5588" dy="1.1938" layer="1"/>
<smd name="51" x="4.4" y="7.8" dx="0.5588" dy="1.1938" layer="1"/>
<smd name="50" x="5.2" y="7.8" dx="0.5588" dy="1.1938" layer="1"/>
<smd name="49" x="6" y="7.8" dx="0.5588" dy="1.1938" layer="1"/>
<smd name="8" x="-7.8" y="0.4" dx="1.1938" dy="0.5588" layer="1"/>
<smd name="7" x="-7.8" y="1.2" dx="1.1938" dy="0.5588" layer="1"/>
<smd name="6" x="-7.8" y="2" dx="1.1938" dy="0.5588" layer="1"/>
<smd name="5" x="-7.8" y="2.8" dx="1.1938" dy="0.5588" layer="1"/>
<smd name="4" x="-7.8" y="3.6" dx="1.1938" dy="0.5588" layer="1"/>
<smd name="3" x="-7.8" y="4.4" dx="1.1938" dy="0.5588" layer="1"/>
<smd name="2" x="-7.8" y="5.2" dx="1.1938" dy="0.5588" layer="1"/>
<smd name="1" x="-7.8" y="6" dx="1.1938" dy="0.5588" layer="1"/>
<smd name="9" x="-7.8" y="-0.4" dx="1.1938" dy="0.5588" layer="1"/>
<smd name="10" x="-7.8" y="-1.2" dx="1.1938" dy="0.5588" layer="1"/>
<smd name="11" x="-7.8" y="-2" dx="1.1938" dy="0.5588" layer="1"/>
<smd name="12" x="-7.8" y="-2.8" dx="1.1938" dy="0.5588" layer="1"/>
<smd name="13" x="-7.8" y="-3.6" dx="1.1938" dy="0.5588" layer="1"/>
<smd name="14" x="-7.8" y="-4.4" dx="1.1938" dy="0.5588" layer="1"/>
<smd name="15" x="-7.8" y="-5.2" dx="1.1938" dy="0.5588" layer="1"/>
<smd name="16" x="-7.8" y="-6" dx="1.1938" dy="0.5588" layer="1"/>
<smd name="17" x="-6" y="-7.8" dx="0.5588" dy="1.1938" layer="1"/>
<smd name="18" x="-5.2" y="-7.8" dx="0.5588" dy="1.1938" layer="1"/>
<smd name="19" x="-4.4" y="-7.8" dx="0.5588" dy="1.1938" layer="1"/>
<smd name="20" x="-3.6" y="-7.8" dx="0.5588" dy="1.1938" layer="1"/>
<smd name="21" x="-2.8" y="-7.8" dx="0.5588" dy="1.1938" layer="1"/>
<smd name="22" x="-2" y="-7.8" dx="0.5588" dy="1.1938" layer="1"/>
<smd name="23" x="-1.2" y="-7.8" dx="0.5588" dy="1.1938" layer="1"/>
<smd name="24" x="-0.4" y="-7.8" dx="0.5588" dy="1.1938" layer="1"/>
<smd name="25" x="0.4" y="-7.8" dx="0.5588" dy="1.1938" layer="1"/>
<smd name="26" x="1.2" y="-7.8" dx="0.5588" dy="1.1938" layer="1"/>
<smd name="27" x="2" y="-7.8" dx="0.5588" dy="1.1938" layer="1"/>
<smd name="28" x="2.8" y="-7.8" dx="0.5588" dy="1.1938" layer="1"/>
<smd name="29" x="3.6" y="-7.8" dx="0.5588" dy="1.1938" layer="1"/>
<smd name="30" x="4.4" y="-7.8" dx="0.5588" dy="1.1938" layer="1"/>
<smd name="31" x="5.2" y="-7.8" dx="0.5588" dy="1.1938" layer="1"/>
<smd name="32" x="6" y="-7.8" dx="0.5588" dy="1.1938" layer="1"/>
<smd name="33" x="7.8" y="-6" dx="1.1938" dy="0.5588" layer="1"/>
<smd name="34" x="7.8" y="-5.2" dx="1.1938" dy="0.5588" layer="1"/>
<smd name="35" x="7.8" y="-4.4" dx="1.1938" dy="0.5588" layer="1"/>
<smd name="36" x="7.8" y="-3.6" dx="1.1938" dy="0.5588" layer="1"/>
<smd name="37" x="7.8" y="-2.8" dx="1.1938" dy="0.5588" layer="1"/>
<smd name="38" x="7.8" y="-2" dx="1.1938" dy="0.5588" layer="1"/>
<smd name="39" x="7.8" y="-1.2" dx="1.1938" dy="0.5588" layer="1"/>
<smd name="40" x="7.8" y="-0.4" dx="1.1938" dy="0.5588" layer="1"/>
<smd name="41" x="7.8" y="0.4" dx="1.1938" dy="0.5588" layer="1"/>
<smd name="42" x="7.8" y="1.2" dx="1.1938" dy="0.5588" layer="1"/>
<smd name="43" x="7.8" y="2" dx="1.1938" dy="0.5588" layer="1"/>
<smd name="44" x="7.8" y="2.8" dx="1.1938" dy="0.5588" layer="1"/>
<smd name="45" x="7.8" y="3.6" dx="1.1938" dy="0.5588" layer="1"/>
<smd name="46" x="7.8" y="4.4" dx="1.1938" dy="0.5588" layer="1"/>
<smd name="47" x="7.8" y="5.2" dx="1.1938" dy="0.5588" layer="1"/>
<smd name="48" x="7.8" y="6" dx="1.1938" dy="0.5588" layer="1"/>
<text x="-5.715" y="8.9027" size="1.27" layer="25">&gt;NAME</text>
<text x="-6.35" y="-1.8923" size="1.27" layer="27">&gt;VALUE</text>
<rectangle x1="-8.1788" y1="5.7651" x2="-7.0866" y2="6.2223" layer="51"/>
<rectangle x1="-8.1788" y1="4.9651" x2="-7.0866" y2="5.4223" layer="51"/>
<rectangle x1="-8.1788" y1="4.1651" x2="-7.0866" y2="4.6223" layer="51"/>
<rectangle x1="-8.1788" y1="3.3651" x2="-7.0866" y2="3.8223" layer="51"/>
<rectangle x1="-8.1788" y1="2.5651" x2="-7.0866" y2="3.0223" layer="51"/>
<rectangle x1="-8.1788" y1="1.7651" x2="-7.0866" y2="2.2223" layer="51"/>
<rectangle x1="-8.1788" y1="0.9651" x2="-7.0866" y2="1.4223" layer="51"/>
<rectangle x1="-8.1788" y1="0.1651" x2="-7.0866" y2="0.6223" layer="51"/>
<rectangle x1="-8.1788" y1="-0.6349" x2="-7.0866" y2="-0.1777" layer="51"/>
<rectangle x1="-8.1788" y1="-1.4349" x2="-7.0866" y2="-0.9777" layer="51"/>
<rectangle x1="-8.1788" y1="-2.2349" x2="-7.0866" y2="-1.7777" layer="51"/>
<rectangle x1="-8.1788" y1="-3.0349" x2="-7.0866" y2="-2.5777" layer="51"/>
<rectangle x1="-8.1788" y1="-3.8349" x2="-7.0866" y2="-3.3777" layer="51"/>
<rectangle x1="-8.1788" y1="-4.6349" x2="-7.0866" y2="-4.1777" layer="51"/>
<rectangle x1="-8.1788" y1="-5.4349" x2="-7.0866" y2="-4.9777" layer="51"/>
<rectangle x1="-8.1788" y1="-6.2349" x2="-7.0866" y2="-5.7777" layer="51"/>
<rectangle x1="-6.5398" y1="-7.8613" x2="-5.4476" y2="-7.4041" layer="51" rot="R90"/>
<rectangle x1="-5.7398" y1="-7.8613" x2="-4.6476" y2="-7.4041" layer="51" rot="R90"/>
<rectangle x1="-4.9398" y1="-7.8613" x2="-3.8476" y2="-7.4041" layer="51" rot="R90"/>
<rectangle x1="-4.1398" y1="-7.8613" x2="-3.0476" y2="-7.4041" layer="51" rot="R90"/>
<rectangle x1="-3.3398" y1="-7.8613" x2="-2.2476" y2="-7.4041" layer="51" rot="R90"/>
<rectangle x1="-2.5398" y1="-7.8613" x2="-1.4476" y2="-7.4041" layer="51" rot="R90"/>
<rectangle x1="-1.7398" y1="-7.8613" x2="-0.6476" y2="-7.4041" layer="51" rot="R90"/>
<rectangle x1="-0.9398" y1="-7.8613" x2="0.1524" y2="-7.4041" layer="51" rot="R90"/>
<rectangle x1="-0.1398" y1="-7.8613" x2="0.9524" y2="-7.4041" layer="51" rot="R90"/>
<rectangle x1="0.6602" y1="-7.8613" x2="1.7524" y2="-7.4041" layer="51" rot="R90"/>
<rectangle x1="1.4602" y1="-7.8613" x2="2.5524" y2="-7.4041" layer="51" rot="R90"/>
<rectangle x1="2.2602" y1="-7.8613" x2="3.3524" y2="-7.4041" layer="51" rot="R90"/>
<rectangle x1="3.0602" y1="-7.8613" x2="4.1524" y2="-7.4041" layer="51" rot="R90"/>
<rectangle x1="3.8602" y1="-7.8613" x2="4.9524" y2="-7.4041" layer="51" rot="R90"/>
<rectangle x1="4.6602" y1="-7.8613" x2="5.7524" y2="-7.4041" layer="51" rot="R90"/>
<rectangle x1="5.4602" y1="-7.8613" x2="6.5524" y2="-7.4041" layer="51" rot="R90"/>
<rectangle x1="7.0866" y1="-6.2223" x2="8.1788" y2="-5.7651" layer="51" rot="R180"/>
<rectangle x1="7.0866" y1="-5.4223" x2="8.1788" y2="-4.9651" layer="51" rot="R180"/>
<rectangle x1="7.0866" y1="-4.6223" x2="8.1788" y2="-4.1651" layer="51" rot="R180"/>
<rectangle x1="7.0866" y1="-3.8223" x2="8.1788" y2="-3.3651" layer="51" rot="R180"/>
<rectangle x1="7.0866" y1="-3.0223" x2="8.1788" y2="-2.5651" layer="51" rot="R180"/>
<rectangle x1="7.0866" y1="-2.2223" x2="8.1788" y2="-1.7651" layer="51" rot="R180"/>
<rectangle x1="7.0866" y1="-1.4223" x2="8.1788" y2="-0.9651" layer="51" rot="R180"/>
<rectangle x1="7.0866" y1="-0.6223" x2="8.1788" y2="-0.1651" layer="51" rot="R180"/>
<rectangle x1="7.0866" y1="0.1777" x2="8.1788" y2="0.6349" layer="51" rot="R180"/>
<rectangle x1="7.0866" y1="0.9777" x2="8.1788" y2="1.4349" layer="51" rot="R180"/>
<rectangle x1="7.0866" y1="1.7777" x2="8.1788" y2="2.2349" layer="51" rot="R180"/>
<rectangle x1="7.0866" y1="2.5777" x2="8.1788" y2="3.0349" layer="51" rot="R180"/>
<rectangle x1="7.0866" y1="3.3777" x2="8.1788" y2="3.8349" layer="51" rot="R180"/>
<rectangle x1="7.0866" y1="4.1777" x2="8.1788" y2="4.6349" layer="51" rot="R180"/>
<rectangle x1="7.0866" y1="4.9777" x2="8.1788" y2="5.4349" layer="51" rot="R180"/>
<rectangle x1="7.0866" y1="5.7777" x2="8.1788" y2="6.2349" layer="51" rot="R180"/>
<rectangle x1="5.4476" y1="7.4041" x2="6.5398" y2="7.8613" layer="51" rot="R270"/>
<rectangle x1="4.6476" y1="7.4041" x2="5.7398" y2="7.8613" layer="51" rot="R270"/>
<rectangle x1="3.8476" y1="7.4041" x2="4.9398" y2="7.8613" layer="51" rot="R270"/>
<rectangle x1="3.0476" y1="7.4041" x2="4.1398" y2="7.8613" layer="51" rot="R270"/>
<rectangle x1="2.2476" y1="7.4041" x2="3.3398" y2="7.8613" layer="51" rot="R270"/>
<rectangle x1="1.4476" y1="7.4041" x2="2.5398" y2="7.8613" layer="51" rot="R270"/>
<rectangle x1="0.6476" y1="7.4041" x2="1.7398" y2="7.8613" layer="51" rot="R270"/>
<rectangle x1="-0.1524" y1="7.4041" x2="0.9398" y2="7.8613" layer="51" rot="R270"/>
<rectangle x1="-0.9524" y1="7.4041" x2="0.1398" y2="7.8613" layer="51" rot="R270"/>
<rectangle x1="-1.7524" y1="7.4041" x2="-0.6602" y2="7.8613" layer="51" rot="R270"/>
<rectangle x1="-2.5524" y1="7.4041" x2="-1.4602" y2="7.8613" layer="51" rot="R270"/>
<rectangle x1="-3.3524" y1="7.4041" x2="-2.2602" y2="7.8613" layer="51" rot="R270"/>
<rectangle x1="-4.1524" y1="7.4041" x2="-3.0602" y2="7.8613" layer="51" rot="R270"/>
<rectangle x1="-4.9524" y1="7.4041" x2="-3.8602" y2="7.8613" layer="51" rot="R270"/>
<rectangle x1="-5.7524" y1="7.4041" x2="-4.6602" y2="7.8613" layer="51" rot="R270"/>
<rectangle x1="-6.5524" y1="7.4041" x2="-5.4602" y2="7.8613" layer="51" rot="R270"/>
</package>
<package name="SOIC-8">
<wire x1="-2.35" y1="1.9" x2="2.35" y2="1.9" width="0.2032" layer="21"/>
<wire x1="2.35" y1="1.9" x2="2.35" y2="-1.9" width="0.2032" layer="21"/>
<wire x1="2.35" y1="-1.9" x2="-2.35" y2="-1.9" width="0.2032" layer="21"/>
<wire x1="-2.35" y1="-1.9" x2="-2.35" y2="1.9" width="0.2032" layer="21"/>
<circle x="-1.625" y="-1.3" radius="0.325" width="0.2032" layer="21"/>
<smd name="1" x="-1.905" y="-2.65" dx="0.4" dy="1.2" layer="1"/>
<smd name="2" x="-0.635" y="-2.65" dx="0.4" dy="1.2" layer="1"/>
<smd name="3" x="0.635" y="-2.65" dx="0.4" dy="1.2" layer="1"/>
<smd name="4" x="1.905" y="-2.65" dx="0.4" dy="1.2" layer="1"/>
<smd name="5" x="1.905" y="2.65" dx="0.4" dy="1.2" layer="1" rot="R180"/>
<smd name="6" x="0.635" y="2.65" dx="0.4" dy="1.2" layer="1" rot="R180"/>
<smd name="7" x="-0.635" y="2.65" dx="0.4" dy="1.2" layer="1" rot="R180"/>
<smd name="8" x="-1.905" y="2.65" dx="0.4" dy="1.2" layer="1" rot="R180"/>
<text x="-2.54" y="-2.54" size="1.27" layer="25" rot="R90">&gt;NAME</text>
<text x="-1.905" y="-0.635" size="1.27" layer="27">&gt;VALUE</text>
<rectangle x1="-2.055" y1="-3.05" x2="-1.755" y2="-1.98" layer="51"/>
<rectangle x1="-0.785" y1="-3.05" x2="-0.485" y2="-1.98" layer="51"/>
<rectangle x1="0.485" y1="-3.05" x2="0.785" y2="-1.98" layer="51"/>
<rectangle x1="1.755" y1="-3.05" x2="2.055" y2="-1.98" layer="51"/>
<rectangle x1="1.755" y1="1.98" x2="2.055" y2="3.05" layer="51" rot="R180"/>
<rectangle x1="0.485" y1="1.98" x2="0.785" y2="3.05" layer="51" rot="R180"/>
<rectangle x1="-0.785" y1="1.98" x2="-0.485" y2="3.05" layer="51" rot="R180"/>
<rectangle x1="-2.055" y1="1.98" x2="-1.755" y2="3.05" layer="51" rot="R180"/>
</package>
<package name="EM406">
<wire x1="-2.54" y1="-1.651" x2="2.54" y2="-1.651" width="0.254" layer="21"/>
<wire x1="-4.318" y1="0.508" x2="-4.318" y2="1.905" width="0.254" layer="21"/>
<wire x1="3.302" y1="1.905" x2="4.318" y2="1.905" width="0.254" layer="21"/>
<wire x1="4.318" y1="1.905" x2="4.318" y2="0.508" width="0.254" layer="21"/>
<wire x1="-4.318" y1="1.905" x2="-3.302" y2="1.905" width="0.254" layer="21"/>
<circle x="-2.54" y="2.54" radius="0.1047" width="0.4064" layer="21"/>
<smd name="P$1" x="-3.84" y="-0.955" dx="1.2" dy="1.8" layer="1"/>
<smd name="P$2" x="3.76" y="-0.955" dx="1.2" dy="1.8" layer="1"/>
<smd name="1" x="-2.54" y="1.27" dx="0.6" dy="1.55" layer="1"/>
<smd name="2" x="-1.54" y="1.27" dx="0.6" dy="1.55" layer="1"/>
<smd name="3" x="-0.54" y="1.27" dx="0.6" dy="1.55" layer="1"/>
<smd name="4" x="0.46" y="1.27" dx="0.6" dy="1.55" layer="1"/>
<smd name="5" x="1.46" y="1.27" dx="0.6" dy="1.55" layer="1"/>
<smd name="6" x="2.46" y="1.27" dx="0.6" dy="1.55" layer="1"/>
<text x="-1.27" y="2.54" size="0.4064" layer="25">&gt;NAME</text>
<text x="-1.27" y="-2.54" size="0.4064" layer="27">&gt;VALUE</text>
</package>
<package name="SOT223">
<wire x1="3.2766" y1="1.651" x2="3.2766" y2="-1.651" width="0.2032" layer="21"/>
<wire x1="3.2766" y1="-1.651" x2="-3.2766" y2="-1.651" width="0.2032" layer="21"/>
<wire x1="-3.2766" y1="-1.651" x2="-3.2766" y2="1.651" width="0.2032" layer="21"/>
<wire x1="-3.2766" y1="1.651" x2="3.2766" y2="1.651" width="0.2032" layer="21"/>
<smd name="1" x="-2.3114" y="-3.0988" dx="1.2192" dy="2.2352" layer="1"/>
<smd name="2" x="0" y="-3.0988" dx="1.2192" dy="2.2352" layer="1"/>
<smd name="3" x="2.3114" y="-3.0988" dx="1.2192" dy="2.2352" layer="1"/>
<smd name="4" x="0" y="3.099" dx="3.6" dy="2.2" layer="1"/>
<text x="-0.8255" y="4.5085" size="0.4064" layer="25">&gt;NAME</text>
<text x="-1.0795" y="-0.1905" size="0.4064" layer="27">&gt;VALUE</text>
<rectangle x1="-1.6002" y1="1.8034" x2="1.6002" y2="3.6576" layer="51"/>
<rectangle x1="-0.4318" y1="-3.6576" x2="0.4318" y2="-1.8034" layer="51"/>
<rectangle x1="-2.7432" y1="-3.6576" x2="-1.8796" y2="-1.8034" layer="51"/>
<rectangle x1="1.8796" y1="-3.6576" x2="2.7432" y2="-1.8034" layer="51"/>
<rectangle x1="-1.6002" y1="1.8034" x2="1.6002" y2="3.6576" layer="51"/>
<rectangle x1="-0.4318" y1="-3.6576" x2="0.4318" y2="-1.8034" layer="51"/>
<rectangle x1="-2.7432" y1="-3.6576" x2="-1.8796" y2="-1.8034" layer="51"/>
<rectangle x1="1.8796" y1="-3.6576" x2="2.7432" y2="-1.8034" layer="51"/>
</package>
<package name="BIG_W">
<description>Giant UW logo silk screen. 2.7 in wide, 1.82 in tall.</description>
<polygon width="0.127" layer="21">
<vertex x="-0.0508" y="46.0756"/>
<vertex x="-0.0762" y="37.719"/>
<vertex x="5.4356" y="37.719"/>
<vertex x="14.7066" y="-0.0762"/>
<vertex x="27.9654" y="-0.0762"/>
<vertex x="34.1376" y="23.5458"/>
<vertex x="40.1574" y="-0.0762"/>
<vertex x="53.2638" y="-0.0762"/>
<vertex x="63.1444" y="37.7444"/>
<vertex x="68.5038" y="37.7444"/>
<vertex x="68.5038" y="46.101"/>
<vertex x="50.2158" y="46.101"/>
<vertex x="50.2412" y="37.719"/>
<vertex x="56.007" y="37.719"/>
<vertex x="49.53" y="13.7668"/>
<vertex x="41.5036" y="46.0756"/>
<vertex x="33.02" y="46.0756"/>
<vertex x="24.2316" y="13.7668"/>
<vertex x="18.3388" y="37.7444"/>
<vertex x="24.3078" y="37.7444"/>
<vertex x="24.3078" y="46.0756"/>
</polygon>
</package>
<package name="SMALL_W">
<description>Small UW logo silkscreen. 450 mil wide, 303 mil tall.</description>
<polygon width="0.0254" layer="21">
<vertex x="0" y="7.6708"/>
<vertex x="0" y="6.2992"/>
<vertex x="0.889" y="6.2992"/>
<vertex x="2.4638" y="0"/>
<vertex x="4.6482" y="0"/>
<vertex x="5.6896" y="3.937"/>
<vertex x="6.7056" y="0"/>
<vertex x="8.8646" y="0"/>
<vertex x="10.5156" y="6.2992"/>
<vertex x="11.4046" y="6.2992"/>
<vertex x="11.4046" y="7.6708"/>
<vertex x="8.382" y="7.6708"/>
<vertex x="8.382" y="6.2992"/>
<vertex x="9.3472" y="6.2992"/>
<vertex x="8.255" y="2.3114"/>
<vertex x="6.9088" y="7.6708"/>
<vertex x="5.5118" y="7.6708"/>
<vertex x="4.0386" y="2.3114"/>
<vertex x="3.048" y="6.2992"/>
<vertex x="4.0386" y="6.2992"/>
<vertex x="4.0386" y="7.6708"/>
</polygon>
</package>
<package name="BIG_W_BOTTOM">
<polygon width="0.127" layer="22">
<vertex x="70.5104" y="46.5328"/>
<vertex x="70.5358" y="38.1762"/>
<vertex x="65.024" y="38.1762"/>
<vertex x="55.753" y="0.381"/>
<vertex x="42.4942" y="0.381"/>
<vertex x="36.322" y="24.003"/>
<vertex x="30.3022" y="0.381"/>
<vertex x="17.1958" y="0.381"/>
<vertex x="7.3152" y="38.2016"/>
<vertex x="1.9558" y="38.2016"/>
<vertex x="1.9558" y="46.5582"/>
<vertex x="20.2438" y="46.5582"/>
<vertex x="20.2184" y="38.1762"/>
<vertex x="14.4526" y="38.1762"/>
<vertex x="20.9296" y="14.224"/>
<vertex x="28.956" y="46.5328"/>
<vertex x="37.4396" y="46.5328"/>
<vertex x="46.228" y="14.224"/>
<vertex x="52.1208" y="38.2016"/>
<vertex x="46.1518" y="38.2016"/>
<vertex x="46.1518" y="46.5328"/>
</polygon>
</package>
<package name="SMALL_W_BOTTOM">
<description>Small UW logo, mirrored and on bottom silk layer.</description>
<polygon width="0.0254" layer="22">
<vertex x="11.5824" y="7.6708"/>
<vertex x="11.5824" y="6.2992"/>
<vertex x="10.6934" y="6.2992"/>
<vertex x="9.1186" y="0"/>
<vertex x="6.9342" y="0"/>
<vertex x="5.8928" y="3.937"/>
<vertex x="4.8768" y="0"/>
<vertex x="2.7178" y="0"/>
<vertex x="1.0668" y="6.2992"/>
<vertex x="0.1778" y="6.2992"/>
<vertex x="0.1778" y="7.6708"/>
<vertex x="3.2004" y="7.6708"/>
<vertex x="3.2004" y="6.2992"/>
<vertex x="2.2352" y="6.2992"/>
<vertex x="3.3274" y="2.3114"/>
<vertex x="4.6736" y="7.6708"/>
<vertex x="6.0706" y="7.6708"/>
<vertex x="7.5438" y="2.3114"/>
<vertex x="8.5344" y="6.2992"/>
<vertex x="7.5438" y="6.2992"/>
<vertex x="7.5438" y="7.6708"/>
</polygon>
</package>
<package name="ACCEL_AXES">
<wire x1="0" y1="5.08" x2="-1.27" y2="3.81" width="0.1778" layer="21"/>
<wire x1="0" y1="5.08" x2="1.27" y2="3.81" width="0.1778" layer="21"/>
<wire x1="5.08" y1="0" x2="3.81" y2="1.27" width="0.1778" layer="21"/>
<wire x1="5.08" y1="0" x2="3.81" y2="-1.27" width="0.1778" layer="21"/>
<text x="5.461" y="-0.381" size="1.016" layer="21" font="vector">+X</text>
<text x="-0.889" y="5.461" size="1.016" layer="21" font="vector">+Y</text>
<text x="-2.794" y="-2.286" size="1.016" layer="21" font="vector">+Z</text>
<circle x="0" y="0" radius="1.27" width="0.1778" layer="21"/>
<wire x1="0" y1="1.27" x2="0" y2="5.08" width="0.1778" layer="21"/>
<wire x1="1.27" y1="0" x2="5.08" y2="0" width="0.1778" layer="21"/>
<circle x="0" y="0" radius="0.148103125" width="0.1778" layer="21"/>
<wire x1="2.794" y1="-0.762" x2="3.302" y2="-0.254" width="0.1778" layer="21" curve="53.130102" cap="flat"/>
<wire x1="2.286" y1="-0.762" x2="3.302" y2="0.254" width="0.1778" layer="21" curve="-233.130102" cap="flat"/>
<wire x1="2.286" y1="-0.762" x2="2.286" y2="-0.508" width="0.1778" layer="21"/>
<wire x1="2.286" y1="-0.762" x2="2.032" y2="-0.762" width="0.1778" layer="21"/>
<circle x="0" y="0" radius="0.0508" width="0.1778" layer="21"/>
<circle x="0" y="0" radius="0.254" width="0.1778" layer="21"/>
<wire x1="-0.254" y1="2.032" x2="0.762" y2="3.048" width="0.1778" layer="21" curve="-233.130102" cap="flat"/>
<wire x1="0.254" y1="2.032" x2="0.762" y2="2.54" width="0.1778" layer="21" curve="53.130102" cap="flat"/>
<wire x1="0.762" y1="3.302" x2="0.762" y2="3.048" width="0.1778" layer="21"/>
<wire x1="0.762" y1="3.048" x2="0.508" y2="3.048" width="0.1778" layer="21"/>
<wire x1="-0.254" y1="-0.762" x2="0.762" y2="0.254" width="0.1778" layer="21" curve="-233.130102" cap="flat"/>
<wire x1="-0.254" y1="-0.508" x2="-0.254" y2="-0.762" width="0.1778" layer="21"/>
<wire x1="-0.254" y1="-0.762" x2="-0.508" y2="-0.762" width="0.1778" layer="21"/>
</package>
<package name="COMPASS_AXES">
<wire x1="0" y1="5.08" x2="-1.27" y2="3.81" width="0.1778" layer="21"/>
<wire x1="0" y1="5.08" x2="1.27" y2="3.81" width="0.1778" layer="21"/>
<wire x1="5.08" y1="0" x2="3.81" y2="1.27" width="0.1778" layer="21"/>
<wire x1="5.08" y1="0" x2="3.81" y2="-1.27" width="0.1778" layer="21"/>
<text x="-0.889" y="5.461" size="1.016" layer="21" font="vector">+X</text>
<text x="5.715" y="-0.127" size="1.016" layer="21" font="vector">+Y</text>
<text x="-2.794" y="-2.286" size="1.016" layer="21" font="vector">+Z</text>
<circle x="0" y="0" radius="1.27" width="0.1778" layer="21"/>
<wire x1="0" y1="1.27" x2="0" y2="5.08" width="0.1778" layer="21"/>
<wire x1="1.27" y1="0" x2="5.08" y2="0" width="0.1778" layer="21"/>
<wire x1="0.9144" y1="-0.889" x2="-0.9144" y2="0.889" width="0.1778" layer="21"/>
<wire x1="-0.889" y1="-0.889" x2="0.889" y2="0.889" width="0.1778" layer="21"/>
</package>
<package name="5MM_BUZZER">
<circle x="0" y="0" radius="4.7" width="0.254" layer="21"/>
<pad name="P$1" x="0" y="-2.5" drill="0.8"/>
<pad name="P$2" x="0" y="2.5" drill="0.8"/>
<text x="1.3" y="2" size="1.27" layer="21" font="vector">+</text>
<text x="-5" y="-3" size="0.8128" layer="27" font="vector" rot="R90">&gt;VALUE</text>
<text x="6.2" y="-3" size="0.8128" layer="25" font="vector" rot="R90">&gt;NAME</text>
</package>
<package name="10X10-64-TQFP">
<wire x1="-4.91" y1="-4.91" x2="4.91" y2="-4.91" width="0.2032" layer="51"/>
<wire x1="4.91" y1="-4.91" x2="4.91" y2="4.91" width="0.2032" layer="51"/>
<wire x1="4.91" y1="4.91" x2="-4.91" y2="4.91" width="0.2032" layer="51"/>
<wire x1="-4.91" y1="4.91" x2="-4.91" y2="-4.91" width="0.2032" layer="51"/>
<wire x1="-4.72" y1="4.71" x2="4.71" y2="4.71" width="0.2032" layer="21"/>
<wire x1="4.71" y1="4.71" x2="4.71" y2="-4.71" width="0.2032" layer="21"/>
<wire x1="4.71" y1="-4.71" x2="-4.72" y2="-4.71" width="0.2032" layer="21"/>
<wire x1="-4.72" y1="-4.71" x2="-4.72" y2="4.71" width="0.2032" layer="21"/>
<circle x="-3.7501" y="-3.7501" radius="0.5002" width="0.254" layer="21"/>
<smd name="1" x="-3.75" y="-5.6" dx="0.3" dy="1.6" layer="1"/>
<smd name="2" x="-3.25" y="-5.6" dx="0.3" dy="1.6" layer="1"/>
<smd name="3" x="-2.75" y="-5.6" dx="0.3" dy="1.6" layer="1"/>
<smd name="4" x="-2.25" y="-5.6" dx="0.3" dy="1.6" layer="1"/>
<smd name="5" x="-1.75" y="-5.6" dx="0.3" dy="1.6" layer="1"/>
<smd name="6" x="-1.25" y="-5.6" dx="0.3" dy="1.6" layer="1"/>
<smd name="7" x="-0.75" y="-5.6" dx="0.3" dy="1.6" layer="1"/>
<smd name="8" x="-0.25" y="-5.6" dx="0.3" dy="1.6" layer="1"/>
<smd name="9" x="0.25" y="-5.6" dx="0.3" dy="1.6" layer="1"/>
<smd name="10" x="0.75" y="-5.6" dx="0.3" dy="1.6" layer="1"/>
<smd name="11" x="1.25" y="-5.6" dx="0.3" dy="1.6" layer="1"/>
<smd name="12" x="1.75" y="-5.6" dx="0.3" dy="1.6" layer="1"/>
<smd name="13" x="2.25" y="-5.6" dx="0.3" dy="1.6" layer="1"/>
<smd name="14" x="2.75" y="-5.6" dx="0.3" dy="1.6" layer="1"/>
<smd name="15" x="3.25" y="-5.6" dx="0.3" dy="1.6" layer="1"/>
<smd name="16" x="3.75" y="-5.6" dx="0.3" dy="1.6" layer="1"/>
<smd name="17" x="5.6" y="-3.75" dx="1.6" dy="0.3" layer="1"/>
<smd name="18" x="5.6" y="-3.25" dx="1.6" dy="0.3" layer="1"/>
<smd name="19" x="5.6" y="-2.75" dx="1.6" dy="0.3" layer="1"/>
<smd name="20" x="5.6" y="-2.25" dx="1.6" dy="0.3" layer="1"/>
<smd name="21" x="5.6" y="-1.75" dx="1.6" dy="0.3" layer="1"/>
<smd name="22" x="5.6" y="-1.25" dx="1.6" dy="0.3" layer="1"/>
<smd name="23" x="5.6" y="-0.75" dx="1.6" dy="0.3" layer="1"/>
<smd name="24" x="5.6" y="-0.25" dx="1.6" dy="0.3" layer="1"/>
<smd name="25" x="5.6" y="0.25" dx="1.6" dy="0.3" layer="1"/>
<smd name="26" x="5.6" y="0.75" dx="1.6" dy="0.3" layer="1"/>
<smd name="27" x="5.6" y="1.25" dx="1.6" dy="0.3" layer="1"/>
<smd name="28" x="5.6" y="1.75" dx="1.6" dy="0.3" layer="1"/>
<smd name="29" x="5.6" y="2.25" dx="1.6" dy="0.3" layer="1"/>
<smd name="30" x="5.6" y="2.75" dx="1.6" dy="0.3" layer="1"/>
<smd name="31" x="5.6" y="3.25" dx="1.6" dy="0.3" layer="1"/>
<smd name="32" x="5.6" y="3.75" dx="1.6" dy="0.3" layer="1"/>
<smd name="33" x="3.75" y="5.6" dx="0.3" dy="1.6" layer="1"/>
<smd name="34" x="3.25" y="5.6" dx="0.3" dy="1.6" layer="1"/>
<smd name="35" x="2.75" y="5.6" dx="0.3" dy="1.6" layer="1"/>
<smd name="36" x="2.25" y="5.6" dx="0.3" dy="1.6" layer="1"/>
<smd name="37" x="1.75" y="5.6" dx="0.3" dy="1.6" layer="1"/>
<smd name="38" x="1.25" y="5.6" dx="0.3" dy="1.6" layer="1"/>
<smd name="39" x="0.75" y="5.6" dx="0.3" dy="1.6" layer="1"/>
<smd name="40" x="0.25" y="5.6" dx="0.3" dy="1.6" layer="1"/>
<smd name="41" x="-0.25" y="5.6" dx="0.3" dy="1.6" layer="1"/>
<smd name="42" x="-0.75" y="5.6" dx="0.3" dy="1.6" layer="1"/>
<smd name="43" x="-1.25" y="5.6" dx="0.3" dy="1.6" layer="1"/>
<smd name="44" x="-1.75" y="5.6" dx="0.3" dy="1.6" layer="1"/>
<smd name="45" x="-2.25" y="5.6" dx="0.3" dy="1.6" layer="1"/>
<smd name="46" x="-2.75" y="5.6" dx="0.3" dy="1.6" layer="1"/>
<smd name="47" x="-3.25" y="5.6" dx="0.3" dy="1.6" layer="1"/>
<smd name="48" x="-3.75" y="5.6" dx="0.3" dy="1.6" layer="1"/>
<smd name="49" x="-5.6" y="3.75" dx="1.6" dy="0.3" layer="1"/>
<smd name="50" x="-5.6" y="3.25" dx="1.6" dy="0.3" layer="1"/>
<smd name="51" x="-5.6" y="2.75" dx="1.6" dy="0.3" layer="1"/>
<smd name="52" x="-5.6" y="2.25" dx="1.6" dy="0.3" layer="1"/>
<smd name="53" x="-5.6" y="1.75" dx="1.6" dy="0.3" layer="1"/>
<smd name="54" x="-5.6" y="1.25" dx="1.6" dy="0.3" layer="1"/>
<smd name="55" x="-5.6" y="0.75" dx="1.6" dy="0.3" layer="1"/>
<smd name="56" x="-5.6" y="0.25" dx="1.6" dy="0.3" layer="1"/>
<smd name="57" x="-5.6" y="-0.25" dx="1.6" dy="0.3" layer="1"/>
<smd name="58" x="-5.6" y="-0.75" dx="1.6" dy="0.3" layer="1"/>
<smd name="59" x="-5.6" y="-1.25" dx="1.6" dy="0.3" layer="1"/>
<smd name="60" x="-5.6" y="-1.75" dx="1.6" dy="0.3" layer="1"/>
<smd name="61" x="-5.6" y="-2.25" dx="1.6" dy="0.3" layer="1"/>
<smd name="62" x="-5.6" y="-2.75" dx="1.6" dy="0.3" layer="1"/>
<smd name="63" x="-5.6" y="-3.25" dx="1.6" dy="0.3" layer="1"/>
<smd name="64" x="-5.6" y="-3.75" dx="1.6" dy="0.3" layer="1"/>
<text x="-3.81" y="-2.175" size="1.27" layer="25">&gt;NAME</text>
<text x="-3.81" y="1.905" size="1.27" layer="27">&gt;VALUE</text>
<rectangle x1="-3.8999" y1="-5.8999" x2="-3.5999" y2="-4.95" layer="51"/>
<rectangle x1="-3.4" y1="-5.8999" x2="-3.1001" y2="-4.95" layer="51"/>
<rectangle x1="-2.8999" y1="-5.8999" x2="-2.5999" y2="-4.95" layer="51"/>
<rectangle x1="-2.4" y1="-5.8999" x2="-2.1001" y2="-4.95" layer="51"/>
<rectangle x1="-1.8999" y1="-5.8999" x2="-1.5999" y2="-4.95" layer="51"/>
<rectangle x1="-1.4" y1="-5.8999" x2="-1.1001" y2="-4.95" layer="51"/>
<rectangle x1="-0.8999" y1="-5.8999" x2="-0.5999" y2="-4.95" layer="51"/>
<rectangle x1="-0.4001" y1="-5.8999" x2="-0.1001" y2="-4.95" layer="51"/>
<rectangle x1="0.1001" y1="-5.8999" x2="0.4001" y2="-4.95" layer="51"/>
<rectangle x1="0.5999" y1="-5.8999" x2="0.8999" y2="-4.95" layer="51"/>
<rectangle x1="1.1001" y1="-5.8999" x2="1.4" y2="-4.95" layer="51"/>
<rectangle x1="1.5999" y1="-5.8999" x2="1.8999" y2="-4.95" layer="51"/>
<rectangle x1="2.1001" y1="-5.8999" x2="2.4" y2="-4.95" layer="51"/>
<rectangle x1="2.5999" y1="-5.8999" x2="2.8999" y2="-4.95" layer="51"/>
<rectangle x1="3.1001" y1="-5.8999" x2="3.4" y2="-4.95" layer="51"/>
<rectangle x1="3.5999" y1="-5.8999" x2="3.8999" y2="-4.95" layer="51"/>
<rectangle x1="4.95" y1="-3.8999" x2="5.8999" y2="-3.5999" layer="51"/>
<rectangle x1="4.95" y1="-3.4" x2="5.8999" y2="-3.1001" layer="51"/>
<rectangle x1="4.95" y1="-2.8999" x2="5.8999" y2="-2.5999" layer="51"/>
<rectangle x1="4.95" y1="-2.4" x2="5.8999" y2="-2.1001" layer="51"/>
<rectangle x1="4.95" y1="-1.8999" x2="5.8999" y2="-1.5999" layer="51"/>
<rectangle x1="4.95" y1="-1.4" x2="5.8999" y2="-1.1001" layer="51"/>
<rectangle x1="4.95" y1="-0.8999" x2="5.8999" y2="-0.5999" layer="51"/>
<rectangle x1="4.95" y1="-0.4001" x2="5.8999" y2="-0.1001" layer="51"/>
<rectangle x1="4.95" y1="0.1001" x2="5.8999" y2="0.4001" layer="51"/>
<rectangle x1="4.95" y1="0.5999" x2="5.8999" y2="0.8999" layer="51"/>
<rectangle x1="4.95" y1="1.1001" x2="5.8999" y2="1.4" layer="51"/>
<rectangle x1="4.95" y1="1.5999" x2="5.8999" y2="1.8999" layer="51"/>
<rectangle x1="4.95" y1="2.1001" x2="5.8999" y2="2.4" layer="51"/>
<rectangle x1="4.95" y1="2.5999" x2="5.8999" y2="2.8999" layer="51"/>
<rectangle x1="4.95" y1="3.1001" x2="5.8999" y2="3.4" layer="51"/>
<rectangle x1="4.95" y1="3.5999" x2="5.8999" y2="3.8999" layer="51"/>
<rectangle x1="3.5999" y1="4.95" x2="3.8999" y2="5.8999" layer="51"/>
<rectangle x1="3.1001" y1="4.95" x2="3.4" y2="5.8999" layer="51"/>
<rectangle x1="2.5999" y1="4.95" x2="2.8999" y2="5.8999" layer="51"/>
<rectangle x1="2.1001" y1="4.95" x2="2.4" y2="5.8999" layer="51"/>
<rectangle x1="1.5999" y1="4.95" x2="1.8999" y2="5.8999" layer="51"/>
<rectangle x1="1.1001" y1="4.95" x2="1.4" y2="5.8999" layer="51"/>
<rectangle x1="0.5999" y1="4.95" x2="0.8999" y2="5.8999" layer="51"/>
<rectangle x1="0.1001" y1="4.95" x2="0.4001" y2="5.8999" layer="51"/>
<rectangle x1="-0.4001" y1="4.95" x2="-0.1001" y2="5.8999" layer="51"/>
<rectangle x1="-0.8999" y1="4.95" x2="-0.5999" y2="5.8999" layer="51"/>
<rectangle x1="-1.4" y1="4.95" x2="-1.1001" y2="5.8999" layer="51"/>
<rectangle x1="-1.8999" y1="4.95" x2="-1.5999" y2="5.8999" layer="51"/>
<rectangle x1="-2.4" y1="4.95" x2="-2.1001" y2="5.8999" layer="51"/>
<rectangle x1="-2.8999" y1="4.95" x2="-2.5999" y2="5.8999" layer="51"/>
<rectangle x1="-3.4" y1="4.95" x2="-3.1001" y2="5.8999" layer="51"/>
<rectangle x1="-3.8999" y1="4.95" x2="-3.5999" y2="5.8999" layer="51"/>
<rectangle x1="-5.8999" y1="3.5999" x2="-4.95" y2="3.8999" layer="51"/>
<rectangle x1="-5.8999" y1="3.1001" x2="-4.95" y2="3.4" layer="51"/>
<rectangle x1="-5.8999" y1="2.5999" x2="-4.95" y2="2.8999" layer="51"/>
<rectangle x1="-5.8999" y1="2.1001" x2="-4.95" y2="2.4" layer="51"/>
<rectangle x1="-5.8999" y1="1.5999" x2="-4.95" y2="1.8999" layer="51"/>
<rectangle x1="-5.8999" y1="1.1001" x2="-4.95" y2="1.4" layer="51"/>
<rectangle x1="-5.8999" y1="0.5999" x2="-4.95" y2="0.8999" layer="51"/>
<rectangle x1="-5.8999" y1="0.1001" x2="-4.95" y2="0.4001" layer="51"/>
<rectangle x1="-5.8999" y1="-0.4001" x2="-4.95" y2="-0.1001" layer="51"/>
<rectangle x1="-5.8999" y1="-0.8999" x2="-4.95" y2="-0.5999" layer="51"/>
<rectangle x1="-5.8999" y1="-1.4" x2="-4.95" y2="-1.1001" layer="51"/>
<rectangle x1="-5.8999" y1="-1.8999" x2="-4.95" y2="-1.5999" layer="51"/>
<rectangle x1="-5.8999" y1="-2.4" x2="-4.95" y2="-2.1001" layer="51"/>
<rectangle x1="-5.8999" y1="-2.8999" x2="-4.95" y2="-2.5999" layer="51"/>
<rectangle x1="-5.8999" y1="-3.4" x2="-4.95" y2="-3.1001" layer="51"/>
<rectangle x1="-5.8999" y1="-3.8999" x2="-4.95" y2="-3.5999" layer="51"/>
</package>
<package name="SM10">
<smd name="1" x="-3.1" y="1.895" dx="1.8" dy="1.1" layer="1"/>
<smd name="2" x="3.1" y="1.895" dx="1.8" dy="1.1" layer="1"/>
<smd name="3" x="-3.1" y="-1.895" dx="1.8" dy="1.1" layer="1"/>
<smd name="4" x="3.1" y="-1.895" dx="1.8" dy="1.1" layer="1"/>
<text x="-3" y="3" size="1.016" layer="25">&gt;NAME</text>
<text x="-3" y="-4" size="1.016" layer="27">&gt;VALUE</text>
<circle x="0" y="0" radius="1.360146875" width="0.127" layer="21"/>
<wire x1="-2.6" y1="1.1" x2="-2.6" y2="-1.1" width="0.127" layer="21"/>
<wire x1="2.6" y1="1.1" x2="2.6" y2="-1.1" width="0.127" layer="21"/>
<wire x1="-2" y1="-1.7" x2="-1.1" y2="-2.6" width="0.127" layer="21"/>
<wire x1="-1.1" y1="-2.6" x2="1.1" y2="-2.6" width="0.127" layer="21"/>
<wire x1="1.1" y1="-2.6" x2="2" y2="-1.7" width="0.127" layer="21"/>
<wire x1="-2" y1="1.7" x2="-1.1" y2="2.6" width="0.127" layer="21"/>
<wire x1="-1.1" y1="2.6" x2="1.1" y2="2.6" width="0.127" layer="21"/>
<wire x1="1.1" y1="2.6" x2="2" y2="1.7" width="0.127" layer="21"/>
<wire x1="-3" y1="2" x2="0" y2="2" width="0.127" layer="51"/>
<wire x1="0" y1="2" x2="3" y2="2" width="0.127" layer="51"/>
<wire x1="-3" y1="-2" x2="0" y2="-2" width="0.127" layer="51"/>
<wire x1="0" y1="-2" x2="3" y2="-2" width="0.127" layer="51"/>
<wire x1="0" y1="-2" x2="0" y2="-1" width="0.127" layer="51"/>
<wire x1="0" y1="2" x2="0" y2="1.1" width="0.127" layer="51"/>
<wire x1="0" y1="1.1" x2="0" y2="1" width="0.127" layer="51"/>
<wire x1="0" y1="1" x2="1.1" y2="-0.1" width="0.127" layer="51"/>
<circle x="0" y="1" radius="0.1" width="0.127" layer="51"/>
<circle x="0" y="-1" radius="0.1" width="0.127" layer="51"/>
</package>
</packages>
<symbols>
<symbol name="ATSAM21J18A">
<pin name="PA00" x="-30.48" y="38.1" length="middle"/>
<pin name="PA01" x="-30.48" y="35.56" length="middle"/>
<pin name="PA02" x="-30.48" y="33.02" length="middle"/>
<pin name="PA03" x="-30.48" y="30.48" length="middle"/>
<pin name="PA04" x="-30.48" y="27.94" length="middle"/>
<pin name="PA05" x="-30.48" y="25.4" length="middle"/>
<pin name="PA06" x="-30.48" y="22.86" length="middle"/>
<pin name="PA07" x="-30.48" y="20.32" length="middle"/>
<pin name="PA08" x="-30.48" y="17.78" length="middle"/>
<pin name="PA09" x="-30.48" y="15.24" length="middle"/>
<pin name="PA10" x="-30.48" y="12.7" length="middle"/>
<pin name="PA11" x="-30.48" y="10.16" length="middle"/>
<pin name="PA12" x="-30.48" y="7.62" length="middle"/>
<pin name="PA13" x="-30.48" y="5.08" length="middle"/>
<pin name="PA14" x="-30.48" y="2.54" length="middle"/>
<pin name="PA15" x="-30.48" y="0" length="middle"/>
<pin name="PA16" x="-30.48" y="-2.54" length="middle"/>
<pin name="PA17" x="-30.48" y="-5.08" length="middle"/>
<pin name="PA18" x="-30.48" y="-7.62" length="middle"/>
<pin name="PA19" x="-30.48" y="-10.16" length="middle"/>
<pin name="PA20" x="-30.48" y="-12.7" length="middle"/>
<pin name="PA21" x="-30.48" y="-15.24" length="middle"/>
<pin name="PA22" x="-30.48" y="-17.78" length="middle"/>
<pin name="PA23" x="-30.48" y="-20.32" length="middle"/>
<pin name="PA24" x="-30.48" y="-22.86" length="middle"/>
<pin name="PA25" x="-30.48" y="-25.4" length="middle"/>
<pin name="PA27" x="-30.48" y="-30.48" length="middle"/>
<pin name="PA28" x="-30.48" y="-33.02" length="middle"/>
<pin name="PA30" x="-30.48" y="-38.1" length="middle"/>
<pin name="PA31" x="-30.48" y="-40.64" length="middle"/>
<wire x1="-25.4" y1="40.64" x2="-25.4" y2="-43.18" width="0.254" layer="94"/>
<wire x1="-25.4" y1="-43.18" x2="25.4" y2="-43.18" width="0.254" layer="94"/>
<wire x1="25.4" y1="-43.18" x2="25.4" y2="40.64" width="0.254" layer="94"/>
<wire x1="25.4" y1="40.64" x2="-25.4" y2="40.64" width="0.254" layer="94"/>
<pin name="PB00" x="30.48" y="38.1" length="middle" rot="R180"/>
<pin name="PB01" x="30.48" y="35.56" length="middle" rot="R180"/>
<pin name="PB02" x="30.48" y="33.02" length="middle" rot="R180"/>
<pin name="PB03" x="30.48" y="30.48" length="middle" rot="R180"/>
<pin name="PB04" x="30.48" y="27.94" length="middle" rot="R180"/>
<pin name="PB05" x="30.48" y="25.4" length="middle" rot="R180"/>
<pin name="PB06" x="30.48" y="22.86" length="middle" rot="R180"/>
<pin name="PB07" x="30.48" y="20.32" length="middle" rot="R180"/>
<pin name="PB08" x="30.48" y="17.78" length="middle" rot="R180"/>
<pin name="PB09" x="30.48" y="15.24" length="middle" rot="R180"/>
<pin name="PB10" x="30.48" y="12.7" length="middle" rot="R180"/>
<pin name="PB11" x="30.48" y="10.16" length="middle" rot="R180"/>
<pin name="PB12" x="30.48" y="7.62" length="middle" rot="R180"/>
<pin name="PB13" x="30.48" y="5.08" length="middle" rot="R180"/>
<pin name="PB14" x="30.48" y="2.54" length="middle" rot="R180"/>
<pin name="PB15" x="30.48" y="0" length="middle" rot="R180"/>
<pin name="PB16" x="30.48" y="-2.54" length="middle" rot="R180"/>
<pin name="PB17" x="30.48" y="-5.08" length="middle" rot="R180"/>
<pin name="PB22" x="30.48" y="-17.78" length="middle" rot="R180"/>
<pin name="PB23" x="30.48" y="-20.32" length="middle" rot="R180"/>
<pin name="PB30" x="30.48" y="-38.1" length="middle" rot="R180"/>
<pin name="PB31" x="30.48" y="-40.64" length="middle" rot="R180"/>
<pin name="GNDANA" x="0" y="-48.26" length="middle" direction="pas" rot="R90"/>
<pin name="VDDANA" x="-2.54" y="45.72" length="middle" direction="pas" rot="R270"/>
<pin name="VDDIO@21" x="-12.7" y="45.72" length="middle" direction="pas" rot="R270"/>
<pin name="GND@22" x="-12.7" y="-48.26" length="middle" direction="pas" rot="R90"/>
<pin name="RESETN" x="10.16" y="-48.26" length="middle" rot="R90"/>
<pin name="VDDIN" x="2.54" y="45.72" length="middle" direction="pas" rot="R270"/>
<pin name="VDDCORE" x="7.62" y="45.72" length="middle" direction="pas" rot="R270"/>
<text x="10.16" y="43.18" size="1.778" layer="95">&gt;NAME</text>
<text x="15.24" y="-48.26" size="1.778" layer="96">&gt;VALUE</text>
<pin name="GND@33" x="-10.16" y="-48.26" length="middle" direction="pas" rot="R90"/>
<pin name="GND@47" x="-7.62" y="-48.26" length="middle" direction="pas" rot="R90"/>
<pin name="GND@54" x="-5.08" y="-48.26" length="middle" direction="pas" rot="R90"/>
<pin name="VDDIO@34" x="-10.16" y="45.72" length="middle" direction="pas" rot="R270"/>
<pin name="VDDIO@48" x="-7.62" y="45.72" length="middle" direction="pas" rot="R270"/>
</symbol>
<symbol name="MPU9250">
<description>MPU-9250

9 axis (3 accel 2/4/8/16g, 3 gyro, 3 mag).</description>
<wire x1="-15.24" y1="22.86" x2="15.24" y2="22.86" width="0.254" layer="94"/>
<wire x1="15.24" y1="22.86" x2="15.24" y2="-22.86" width="0.254" layer="94"/>
<wire x1="15.24" y1="-22.86" x2="-15.24" y2="-22.86" width="0.254" layer="94"/>
<wire x1="-15.24" y1="-22.86" x2="-15.24" y2="22.86" width="0.254" layer="94"/>
<pin name="FSYNC" x="-20.32" y="20.32" length="middle"/>
<pin name="SCL/SCLK" x="-20.32" y="15.24" length="middle"/>
<pin name="SDA/SDI" x="-20.32" y="12.7" length="middle"/>
<pin name="AD0/SDO" x="-20.32" y="10.16" length="middle"/>
<pin name="NCS" x="-20.32" y="7.62" length="middle"/>
<pin name="REGOUT" x="-20.32" y="2.54" length="middle"/>
<pin name="VDDIO" x="-20.32" y="-2.54" length="middle" direction="pwr"/>
<pin name="VDD" x="-20.32" y="-5.08" length="middle" direction="pwr"/>
<pin name="NC@2" x="-20.32" y="-10.16" length="middle" direction="nc"/>
<pin name="NC@3" x="-20.32" y="-12.7" length="middle" direction="nc"/>
<pin name="NC@4" x="-20.32" y="-15.24" length="middle" direction="nc"/>
<pin name="NC@5" x="-20.32" y="-17.78" length="middle" direction="nc"/>
<pin name="NC@14" x="20.32" y="-20.32" length="middle" direction="nc" rot="R180"/>
<pin name="NC@15" x="20.32" y="-17.78" length="middle" direction="nc" rot="R180"/>
<pin name="NC@16" x="20.32" y="-15.24" length="middle" direction="nc" rot="R180"/>
<pin name="NC@17" x="20.32" y="-12.7" length="middle" direction="nc" rot="R180"/>
<pin name="GND" x="20.32" y="-5.08" length="middle" direction="pwr" rot="R180"/>
<pin name="RESV@20" x="20.32" y="0" length="middle" rot="R180"/>
<pin name="RESV@19" x="20.32" y="2.54" length="middle" direction="nc" rot="R180"/>
<pin name="RESV@1" x="20.32" y="5.08" length="middle" rot="R180"/>
<pin name="AUX_DA" x="20.32" y="10.16" length="middle" rot="R180"/>
<pin name="AUX_CL" x="20.32" y="12.7" length="middle" rot="R180"/>
<pin name="INT" x="20.32" y="20.32" length="middle" rot="R180"/>
<pin name="NC@6" x="-20.32" y="-20.32" length="middle" direction="nc"/>
<text x="-15.24" y="-25.4" size="1.778" layer="96">&gt;VALUE</text>
<text x="-15.24" y="22.86" size="1.778" layer="95">&gt;NAME</text>
</symbol>
<symbol name="ISO1541">
<wire x1="-10.16" y1="5.08" x2="12.7" y2="5.08" width="0.254" layer="94"/>
<wire x1="12.7" y1="5.08" x2="12.7" y2="-7.62" width="0.254" layer="94"/>
<wire x1="12.7" y1="-7.62" x2="-10.16" y2="-7.62" width="0.254" layer="94"/>
<wire x1="-10.16" y1="-7.62" x2="-10.16" y2="5.08" width="0.254" layer="94"/>
<wire x1="0" y1="3.81" x2="0" y2="-6.35" width="0.254" layer="94" style="shortdash"/>
<wire x1="2.54" y1="3.81" x2="2.54" y2="-6.35" width="0.254" layer="94" style="shortdash"/>
<text x="-10.16" y="6.35" size="1.778" layer="95">&gt;NAME</text>
<text x="-10.16" y="-10.16" size="1.778" layer="96">&gt;VALUE</text>
<pin name="VCC1" x="-12.7" y="2.54" length="short" direction="pas"/>
<pin name="VCC2" x="15.24" y="2.54" length="short" direction="pas" rot="R180"/>
<pin name="GND1" x="-12.7" y="-5.08" length="short" direction="pas"/>
<pin name="GND2" x="15.24" y="-5.08" length="short" direction="pas" rot="R180"/>
<pin name="SDA2" x="15.24" y="0" length="short" rot="R180"/>
<pin name="SCL1" x="-12.7" y="-2.54" length="short"/>
<pin name="SDA1" x="-12.7" y="0" length="short"/>
<pin name="SCL2" x="15.24" y="-2.54" length="short" rot="R180"/>
</symbol>
<symbol name="SUPPLY">
<pin name="D3.3V" x="0" y="0" visible="off" length="short" direction="sup" rot="R90"/>
<text x="-4.826" y="4.318" size="1.778" layer="96">&gt;VALUE</text>
<wire x1="0" y1="0" x2="0" y2="2.54" width="0.254" layer="94"/>
<wire x1="0" y1="3.81" x2="1.27" y2="2.54" width="0.254" layer="94"/>
<wire x1="0" y1="3.81" x2="-1.27" y2="2.54" width="0.254" layer="94"/>
<wire x1="-1.27" y1="2.54" x2="0" y2="2.54" width="0.254" layer="94"/>
<wire x1="0" y1="2.54" x2="1.27" y2="2.54" width="0.254" layer="94"/>
</symbol>
<symbol name="D3.3V">
<wire x1="0.762" y1="1.27" x2="0" y2="2.54" width="0.254" layer="94"/>
<wire x1="0" y1="2.54" x2="-0.762" y2="1.27" width="0.254" layer="94"/>
<text x="-1.016" y="3.556" size="1.778" layer="96">&gt;VALUE</text>
<pin name="D3.3V" x="0" y="0" visible="off" length="short" direction="sup" rot="R90"/>
</symbol>
<symbol name="A3.3V">
<wire x1="0.762" y1="1.27" x2="0" y2="2.54" width="0.254" layer="94"/>
<wire x1="0" y1="2.54" x2="-0.762" y2="1.27" width="0.254" layer="94"/>
<text x="-1.016" y="3.556" size="1.778" layer="96">&gt;VALUE</text>
<pin name="A3.3V" x="0" y="0" visible="off" length="short" direction="sup" rot="R90"/>
</symbol>
<symbol name="EM406">
<wire x1="-5.08" y1="7.62" x2="5.08" y2="7.62" width="0.254" layer="94"/>
<wire x1="5.08" y1="7.62" x2="5.08" y2="-10.16" width="0.254" layer="94"/>
<wire x1="5.08" y1="-10.16" x2="-5.08" y2="-10.16" width="0.254" layer="94"/>
<wire x1="-5.08" y1="-10.16" x2="-5.08" y2="7.62" width="0.254" layer="94"/>
<text x="-5.08" y="8.89" size="1.778" layer="95">&gt;NAME</text>
<text x="-5.08" y="-13.97" size="1.778" layer="96">&gt;VALUE</text>
<pin name="GND" x="-10.16" y="-7.62" length="middle"/>
<pin name="TX" x="-10.16" y="2.54" length="middle"/>
<pin name="RX" x="-10.16" y="0" length="middle"/>
<pin name="5V" x="-10.16" y="-2.54" length="middle"/>
<pin name="DTR" x="-10.16" y="5.08" length="middle"/>
<pin name="CTS" x="-10.16" y="-5.08" length="middle"/>
</symbol>
<symbol name="78XX">
<wire x1="-5.08" y1="-2.54" x2="5.08" y2="-2.54" width="0.4064" layer="94"/>
<wire x1="5.08" y1="-2.54" x2="5.08" y2="5.08" width="0.4064" layer="94"/>
<wire x1="5.08" y1="5.08" x2="-5.08" y2="5.08" width="0.4064" layer="94"/>
<wire x1="-5.08" y1="5.08" x2="-5.08" y2="-2.54" width="0.4064" layer="94"/>
<text x="2.54" y="-5.08" size="1.778" layer="95">&gt;NAME</text>
<text x="2.54" y="-7.62" size="1.778" layer="96">&gt;VALUE</text>
<text x="-2.032" y="-1.778" size="1.524" layer="95">GND</text>
<text x="-4.445" y="1.905" size="1.524" layer="95">IN</text>
<text x="0.635" y="1.905" size="1.524" layer="95">OUT</text>
<pin name="IN" x="-7.62" y="2.54" visible="off" length="short" direction="pas"/>
<pin name="GND" x="0" y="-5.08" visible="off" length="short" direction="pas" rot="R90"/>
<pin name="OUT" x="7.62" y="2.54" visible="off" length="short" direction="pas" rot="R180"/>
</symbol>
<symbol name="BUZZER">
<wire x1="-1.27" y1="1.905" x2="0" y2="1.905" width="0.1524" layer="94"/>
<wire x1="0" y1="1.905" x2="0" y2="2.54" width="0.1524" layer="94"/>
<wire x1="0" y1="1.905" x2="0" y2="1.27" width="0.1524" layer="94"/>
<wire x1="0.635" y1="3.175" x2="0.635" y2="0.635" width="0.1524" layer="94"/>
<wire x1="0.635" y1="0.635" x2="1.905" y2="0.635" width="0.1524" layer="94"/>
<wire x1="1.905" y1="0.635" x2="1.905" y2="3.175" width="0.1524" layer="94"/>
<wire x1="1.905" y1="3.175" x2="0.635" y2="3.175" width="0.1524" layer="94"/>
<wire x1="2.54" y1="2.54" x2="2.54" y2="1.905" width="0.1524" layer="94"/>
<wire x1="2.54" y1="1.905" x2="3.81" y2="1.905" width="0.1524" layer="94"/>
<wire x1="2.54" y1="1.905" x2="2.54" y2="1.27" width="0.1524" layer="94"/>
<wire x1="5.08" y1="0" x2="5.08" y2="3.81" width="0.254" layer="94"/>
<wire x1="5.08" y1="3.81" x2="5.715" y2="3.81" width="0.254" layer="94"/>
<wire x1="5.715" y1="3.81" x2="5.715" y2="4.445" width="0.254" layer="94"/>
<wire x1="5.715" y1="4.445" x2="-3.175" y2="4.445" width="0.254" layer="94"/>
<wire x1="-3.175" y1="4.445" x2="-3.175" y2="3.81" width="0.254" layer="94"/>
<wire x1="-3.175" y1="3.81" x2="-2.54" y2="3.81" width="0.254" layer="94"/>
<wire x1="-2.54" y1="3.81" x2="-2.54" y2="0" width="0.254" layer="94"/>
<wire x1="-2.54" y1="3.81" x2="5.08" y2="3.81" width="0.254" layer="94"/>
<wire x1="-2.54" y1="0" x2="5.08" y2="0" width="0.254" layer="94"/>
<text x="-2.54" y="5.08" size="1.778" layer="95">&gt;NAME</text>
<text x="6.35" y="0" size="1.778" layer="96">&gt;VALUE</text>
<pin name="2" x="2.54" y="-2.54" visible="off" length="short" direction="pas" rot="R90"/>
<pin name="1" x="0" y="-2.54" visible="off" length="short" direction="pas" rot="R90"/>
</symbol>
<symbol name="MOMENTARY_SW">
<wire x1="1.905" y1="0" x2="2.54" y2="0" width="0.254" layer="94"/>
<wire x1="-2.54" y1="0" x2="1.905" y2="1.27" width="0.254" layer="94"/>
<circle x="-2.54" y="0" radius="0.127" width="0.4064" layer="94"/>
<circle x="2.54" y="0" radius="0.127" width="0.4064" layer="94"/>
<text x="-2.54" y="2.54" size="1.778" layer="95">&gt;NAME</text>
<text x="-2.54" y="-2.54" size="1.778" layer="96">&gt;VALUE</text>
<pin name="1" x="-5.08" y="0" visible="off" length="short" direction="pas" swaplevel="2"/>
<pin name="2" x="5.08" y="0" visible="off" length="short" direction="pas" swaplevel="1" rot="R180"/>
</symbol>
<symbol name="SM10">
</symbol>
</symbols>
<devicesets>
<deviceset name="ATSAMD21J18A" prefix="U">
<description>SAM D21 32-bit Cortex M0+ microcontroller

256 Kbytes flash, 32 Kbytes SRAM, 6 SERCOM, 32kHz RTC, 24 PWM channels, 20 ADC channels (8, 10, or 12 bit), 2 analog comparators, 256 touch channels, 52 I/O pins.

Vcc: 1.62 - 3.63 V
Temp Range: -40 - 85 deg C
Max Freq: 48 MHz</description>
<gates>
<gate name="G$1" symbol="ATSAM21J18A" x="0" y="0"/>
</gates>
<devices>
<device name="-AUT" package="10X10-64-TQFP">
<connects>
<connect gate="G$1" pin="GND@22" pad="22"/>
<connect gate="G$1" pin="GND@33" pad="33"/>
<connect gate="G$1" pin="GND@47" pad="47"/>
<connect gate="G$1" pin="GND@54" pad="54"/>
<connect gate="G$1" pin="GNDANA" pad="7"/>
<connect gate="G$1" pin="PA00" pad="1"/>
<connect gate="G$1" pin="PA01" pad="2"/>
<connect gate="G$1" pin="PA02" pad="3"/>
<connect gate="G$1" pin="PA03" pad="4"/>
<connect gate="G$1" pin="PA04" pad="13"/>
<connect gate="G$1" pin="PA05" pad="14"/>
<connect gate="G$1" pin="PA06" pad="15"/>
<connect gate="G$1" pin="PA07" pad="16"/>
<connect gate="G$1" pin="PA08" pad="17"/>
<connect gate="G$1" pin="PA09" pad="18"/>
<connect gate="G$1" pin="PA10" pad="19"/>
<connect gate="G$1" pin="PA11" pad="20"/>
<connect gate="G$1" pin="PA12" pad="29"/>
<connect gate="G$1" pin="PA13" pad="30"/>
<connect gate="G$1" pin="PA14" pad="31"/>
<connect gate="G$1" pin="PA15" pad="32"/>
<connect gate="G$1" pin="PA16" pad="35"/>
<connect gate="G$1" pin="PA17" pad="36"/>
<connect gate="G$1" pin="PA18" pad="37"/>
<connect gate="G$1" pin="PA19" pad="38"/>
<connect gate="G$1" pin="PA20" pad="41"/>
<connect gate="G$1" pin="PA21" pad="42"/>
<connect gate="G$1" pin="PA22" pad="43"/>
<connect gate="G$1" pin="PA23" pad="44"/>
<connect gate="G$1" pin="PA24" pad="45"/>
<connect gate="G$1" pin="PA25" pad="46"/>
<connect gate="G$1" pin="PA27" pad="51"/>
<connect gate="G$1" pin="PA28" pad="53"/>
<connect gate="G$1" pin="PA30" pad="57"/>
<connect gate="G$1" pin="PA31" pad="58"/>
<connect gate="G$1" pin="PB00" pad="61"/>
<connect gate="G$1" pin="PB01" pad="62"/>
<connect gate="G$1" pin="PB02" pad="63"/>
<connect gate="G$1" pin="PB03" pad="64"/>
<connect gate="G$1" pin="PB04" pad="5"/>
<connect gate="G$1" pin="PB05" pad="6"/>
<connect gate="G$1" pin="PB06" pad="9"/>
<connect gate="G$1" pin="PB07" pad="10"/>
<connect gate="G$1" pin="PB08" pad="11"/>
<connect gate="G$1" pin="PB09" pad="12"/>
<connect gate="G$1" pin="PB10" pad="23"/>
<connect gate="G$1" pin="PB11" pad="24"/>
<connect gate="G$1" pin="PB12" pad="25"/>
<connect gate="G$1" pin="PB13" pad="26"/>
<connect gate="G$1" pin="PB14" pad="27"/>
<connect gate="G$1" pin="PB15" pad="28"/>
<connect gate="G$1" pin="PB16" pad="39"/>
<connect gate="G$1" pin="PB17" pad="40"/>
<connect gate="G$1" pin="PB22" pad="49"/>
<connect gate="G$1" pin="PB23" pad="50"/>
<connect gate="G$1" pin="PB30" pad="59"/>
<connect gate="G$1" pin="PB31" pad="60"/>
<connect gate="G$1" pin="RESETN" pad="52"/>
<connect gate="G$1" pin="VDDANA" pad="8"/>
<connect gate="G$1" pin="VDDCORE" pad="55"/>
<connect gate="G$1" pin="VDDIN" pad="56"/>
<connect gate="G$1" pin="VDDIO@21" pad="21"/>
<connect gate="G$1" pin="VDDIO@34" pad="34"/>
<connect gate="G$1" pin="VDDIO@48" pad="48"/>
</connects>
<technologies>
<technology name=""/>
</technologies>
</device>
</devices>
</deviceset>
<deviceset name="ISO1540" prefix="U">
<description>Bidirectional I2C Isolator</description>
<gates>
<gate name="G$1" symbol="ISO1541" x="0" y="0"/>
</gates>
<devices>
<device name="" package="SOIC-8">
<connects>
<connect gate="G$1" pin="GND1" pad="4"/>
<connect gate="G$1" pin="GND2" pad="5"/>
<connect gate="G$1" pin="SCL1" pad="3"/>
<connect gate="G$1" pin="SCL2" pad="6"/>
<connect gate="G$1" pin="SDA1" pad="2"/>
<connect gate="G$1" pin="SDA2" pad="7"/>
<connect gate="G$1" pin="VCC1" pad="1"/>
<connect gate="G$1" pin="VCC2" pad="8"/>
</connects>
<technologies>
<technology name=""/>
</technologies>
</device>
</devices>
</deviceset>
<deviceset name="A3.3V" prefix="A3.3V">
<description>Analog 3.3V supply symbol.</description>
<gates>
<gate name="G$1" symbol="A3.3V" x="0" y="0"/>
</gates>
<devices>
<device name="">
<technologies>
<technology name=""/>
</technologies>
</device>
</devices>
</deviceset>
<deviceset name="D3.3V" prefix="D3.3V">
<description>Digital 3.3V supply symbol.</description>
<gates>
<gate name="G$1" symbol="D3.3V" x="0" y="0"/>
</gates>
<devices>
<device name="">
<technologies>
<technology name=""/>
</technologies>
</device>
</devices>
</deviceset>
<deviceset name="XBEE_FTDI_HEADER" prefix="JP">
<gates>
<gate name="G$1" symbol="EM406" x="0" y="0"/>
</gates>
<devices>
<device name="" package="EM406">
<connects>
<connect gate="G$1" pin="5V" pad="4"/>
<connect gate="G$1" pin="CTS" pad="5"/>
<connect gate="G$1" pin="DTR" pad="1"/>
<connect gate="G$1" pin="GND" pad="6"/>
<connect gate="G$1" pin="RX" pad="3"/>
<connect gate="G$1" pin="TX" pad="2"/>
</connects>
<technologies>
<technology name=""/>
</technologies>
</device>
</devices>
</deviceset>
<deviceset name="MIC39100-5.0WS" prefix="U">
<gates>
<gate name="G$1" symbol="78XX" x="0" y="0"/>
</gates>
<devices>
<device name="" package="SOT223">
<connects>
<connect gate="G$1" pin="GND" pad="2 4"/>
<connect gate="G$1" pin="IN" pad="1"/>
<connect gate="G$1" pin="OUT" pad="3"/>
</connects>
<technologies>
<technology name=""/>
</technologies>
</device>
</devices>
</deviceset>
<deviceset name="MIC39100-3.3WS" prefix="U">
<gates>
<gate name="G$1" symbol="78XX" x="0" y="0"/>
</gates>
<devices>
<device name="" package="SOT223">
<connects>
<connect gate="G$1" pin="GND" pad="2 4"/>
<connect gate="G$1" pin="IN" pad="1"/>
<connect gate="G$1" pin="OUT" pad="3"/>
</connects>
<technologies>
<technology name=""/>
</technologies>
</device>
</devices>
</deviceset>
<deviceset name="AI-1027-TWT-3V-R" prefix="U">
<description>3.3 V 5mm buzer</description>
<gates>
<gate name="G$1" symbol="BUZZER" x="0" y="0"/>
</gates>
<devices>
<device name="" package="5MM_BUZZER">
<connects>
<connect gate="G$1" pin="1" pad="P$1"/>
<connect gate="G$1" pin="2" pad="P$2"/>
</connects>
<technologies>
<technology name=""/>
</technologies>
</device>
</devices>
</deviceset>
<deviceset name="MOMENTARY_SW" prefix="S">
<gates>
<gate name="G$1" symbol="MOMENTARY_SW" x="-2.54" y="-2.54"/>
</gates>
<devices>
<device name="" package="SM10">
<connects>
<connect gate="G$1" pin="1" pad="1"/>
<connect gate="G$1" pin="2" pad="3"/>
</connects>
<technologies>
<technology name=""/>
</technologies>
</device>
</devices>
</deviceset>
</devicesets>
</library>
</drawing>
</eagle>
