G75*
%MOIN*%
%OFA0B0*%
%FSLAX25Y25*%
%IPPOS*%
%LPD*%
%AMOC8*
5,1,8,0,0,1.08239X$1,22.5*
%
%ADD10C,0.00000*%
%ADD11R,0.08000X0.08000*%
%ADD12C,0.08000*%
%ADD13C,0.06600*%
%ADD14C,0.04362*%
%ADD15OC8,0.07400*%
%ADD16R,0.07400X0.07400*%
%ADD17C,0.07400*%
%ADD18C,0.05150*%
%ADD19R,0.04600X0.06300*%
%ADD20C,0.03169*%
%ADD21C,0.01200*%
%ADD22C,0.01600*%
%ADD23C,0.01000*%
%ADD24C,0.04000*%
D10*
X0002000Y0002000D02*
X0002000Y0501961D01*
X0198732Y0501961D01*
X0198732Y0002063D01*
X0002000Y0002000D01*
X0012094Y0018000D02*
X0012096Y0018153D01*
X0012102Y0018307D01*
X0012112Y0018460D01*
X0012126Y0018612D01*
X0012144Y0018765D01*
X0012166Y0018916D01*
X0012191Y0019067D01*
X0012221Y0019218D01*
X0012255Y0019368D01*
X0012292Y0019516D01*
X0012333Y0019664D01*
X0012378Y0019810D01*
X0012427Y0019956D01*
X0012480Y0020100D01*
X0012536Y0020242D01*
X0012596Y0020383D01*
X0012660Y0020523D01*
X0012727Y0020661D01*
X0012798Y0020797D01*
X0012873Y0020931D01*
X0012950Y0021063D01*
X0013032Y0021193D01*
X0013116Y0021321D01*
X0013204Y0021447D01*
X0013295Y0021570D01*
X0013389Y0021691D01*
X0013487Y0021809D01*
X0013587Y0021925D01*
X0013691Y0022038D01*
X0013797Y0022149D01*
X0013906Y0022257D01*
X0014018Y0022362D01*
X0014132Y0022463D01*
X0014250Y0022562D01*
X0014369Y0022658D01*
X0014491Y0022751D01*
X0014616Y0022840D01*
X0014743Y0022927D01*
X0014872Y0023009D01*
X0015003Y0023089D01*
X0015136Y0023165D01*
X0015271Y0023238D01*
X0015408Y0023307D01*
X0015547Y0023372D01*
X0015687Y0023434D01*
X0015829Y0023492D01*
X0015972Y0023547D01*
X0016117Y0023598D01*
X0016263Y0023645D01*
X0016410Y0023688D01*
X0016558Y0023727D01*
X0016707Y0023763D01*
X0016857Y0023794D01*
X0017008Y0023822D01*
X0017159Y0023846D01*
X0017312Y0023866D01*
X0017464Y0023882D01*
X0017617Y0023894D01*
X0017770Y0023902D01*
X0017923Y0023906D01*
X0018077Y0023906D01*
X0018230Y0023902D01*
X0018383Y0023894D01*
X0018536Y0023882D01*
X0018688Y0023866D01*
X0018841Y0023846D01*
X0018992Y0023822D01*
X0019143Y0023794D01*
X0019293Y0023763D01*
X0019442Y0023727D01*
X0019590Y0023688D01*
X0019737Y0023645D01*
X0019883Y0023598D01*
X0020028Y0023547D01*
X0020171Y0023492D01*
X0020313Y0023434D01*
X0020453Y0023372D01*
X0020592Y0023307D01*
X0020729Y0023238D01*
X0020864Y0023165D01*
X0020997Y0023089D01*
X0021128Y0023009D01*
X0021257Y0022927D01*
X0021384Y0022840D01*
X0021509Y0022751D01*
X0021631Y0022658D01*
X0021750Y0022562D01*
X0021868Y0022463D01*
X0021982Y0022362D01*
X0022094Y0022257D01*
X0022203Y0022149D01*
X0022309Y0022038D01*
X0022413Y0021925D01*
X0022513Y0021809D01*
X0022611Y0021691D01*
X0022705Y0021570D01*
X0022796Y0021447D01*
X0022884Y0021321D01*
X0022968Y0021193D01*
X0023050Y0021063D01*
X0023127Y0020931D01*
X0023202Y0020797D01*
X0023273Y0020661D01*
X0023340Y0020523D01*
X0023404Y0020383D01*
X0023464Y0020242D01*
X0023520Y0020100D01*
X0023573Y0019956D01*
X0023622Y0019810D01*
X0023667Y0019664D01*
X0023708Y0019516D01*
X0023745Y0019368D01*
X0023779Y0019218D01*
X0023809Y0019067D01*
X0023834Y0018916D01*
X0023856Y0018765D01*
X0023874Y0018612D01*
X0023888Y0018460D01*
X0023898Y0018307D01*
X0023904Y0018153D01*
X0023906Y0018000D01*
X0023904Y0017847D01*
X0023898Y0017693D01*
X0023888Y0017540D01*
X0023874Y0017388D01*
X0023856Y0017235D01*
X0023834Y0017084D01*
X0023809Y0016933D01*
X0023779Y0016782D01*
X0023745Y0016632D01*
X0023708Y0016484D01*
X0023667Y0016336D01*
X0023622Y0016190D01*
X0023573Y0016044D01*
X0023520Y0015900D01*
X0023464Y0015758D01*
X0023404Y0015617D01*
X0023340Y0015477D01*
X0023273Y0015339D01*
X0023202Y0015203D01*
X0023127Y0015069D01*
X0023050Y0014937D01*
X0022968Y0014807D01*
X0022884Y0014679D01*
X0022796Y0014553D01*
X0022705Y0014430D01*
X0022611Y0014309D01*
X0022513Y0014191D01*
X0022413Y0014075D01*
X0022309Y0013962D01*
X0022203Y0013851D01*
X0022094Y0013743D01*
X0021982Y0013638D01*
X0021868Y0013537D01*
X0021750Y0013438D01*
X0021631Y0013342D01*
X0021509Y0013249D01*
X0021384Y0013160D01*
X0021257Y0013073D01*
X0021128Y0012991D01*
X0020997Y0012911D01*
X0020864Y0012835D01*
X0020729Y0012762D01*
X0020592Y0012693D01*
X0020453Y0012628D01*
X0020313Y0012566D01*
X0020171Y0012508D01*
X0020028Y0012453D01*
X0019883Y0012402D01*
X0019737Y0012355D01*
X0019590Y0012312D01*
X0019442Y0012273D01*
X0019293Y0012237D01*
X0019143Y0012206D01*
X0018992Y0012178D01*
X0018841Y0012154D01*
X0018688Y0012134D01*
X0018536Y0012118D01*
X0018383Y0012106D01*
X0018230Y0012098D01*
X0018077Y0012094D01*
X0017923Y0012094D01*
X0017770Y0012098D01*
X0017617Y0012106D01*
X0017464Y0012118D01*
X0017312Y0012134D01*
X0017159Y0012154D01*
X0017008Y0012178D01*
X0016857Y0012206D01*
X0016707Y0012237D01*
X0016558Y0012273D01*
X0016410Y0012312D01*
X0016263Y0012355D01*
X0016117Y0012402D01*
X0015972Y0012453D01*
X0015829Y0012508D01*
X0015687Y0012566D01*
X0015547Y0012628D01*
X0015408Y0012693D01*
X0015271Y0012762D01*
X0015136Y0012835D01*
X0015003Y0012911D01*
X0014872Y0012991D01*
X0014743Y0013073D01*
X0014616Y0013160D01*
X0014491Y0013249D01*
X0014369Y0013342D01*
X0014250Y0013438D01*
X0014132Y0013537D01*
X0014018Y0013638D01*
X0013906Y0013743D01*
X0013797Y0013851D01*
X0013691Y0013962D01*
X0013587Y0014075D01*
X0013487Y0014191D01*
X0013389Y0014309D01*
X0013295Y0014430D01*
X0013204Y0014553D01*
X0013116Y0014679D01*
X0013032Y0014807D01*
X0012950Y0014937D01*
X0012873Y0015069D01*
X0012798Y0015203D01*
X0012727Y0015339D01*
X0012660Y0015477D01*
X0012596Y0015617D01*
X0012536Y0015758D01*
X0012480Y0015900D01*
X0012427Y0016044D01*
X0012378Y0016190D01*
X0012333Y0016336D01*
X0012292Y0016484D01*
X0012255Y0016632D01*
X0012221Y0016782D01*
X0012191Y0016933D01*
X0012166Y0017084D01*
X0012144Y0017235D01*
X0012126Y0017388D01*
X0012112Y0017540D01*
X0012102Y0017693D01*
X0012096Y0017847D01*
X0012094Y0018000D01*
X0020500Y0378000D02*
X0020502Y0378161D01*
X0020508Y0378321D01*
X0020518Y0378482D01*
X0020532Y0378642D01*
X0020550Y0378802D01*
X0020571Y0378961D01*
X0020597Y0379120D01*
X0020627Y0379278D01*
X0020660Y0379435D01*
X0020698Y0379592D01*
X0020739Y0379747D01*
X0020784Y0379901D01*
X0020833Y0380054D01*
X0020886Y0380206D01*
X0020942Y0380357D01*
X0021003Y0380506D01*
X0021066Y0380654D01*
X0021134Y0380800D01*
X0021205Y0380944D01*
X0021279Y0381086D01*
X0021357Y0381227D01*
X0021439Y0381365D01*
X0021524Y0381502D01*
X0021612Y0381636D01*
X0021704Y0381768D01*
X0021799Y0381898D01*
X0021897Y0382026D01*
X0021998Y0382151D01*
X0022102Y0382273D01*
X0022209Y0382393D01*
X0022319Y0382510D01*
X0022432Y0382625D01*
X0022548Y0382736D01*
X0022667Y0382845D01*
X0022788Y0382950D01*
X0022912Y0383053D01*
X0023038Y0383153D01*
X0023166Y0383249D01*
X0023297Y0383342D01*
X0023431Y0383432D01*
X0023566Y0383519D01*
X0023704Y0383602D01*
X0023843Y0383682D01*
X0023985Y0383758D01*
X0024128Y0383831D01*
X0024273Y0383900D01*
X0024420Y0383966D01*
X0024568Y0384028D01*
X0024718Y0384086D01*
X0024869Y0384141D01*
X0025022Y0384192D01*
X0025176Y0384239D01*
X0025331Y0384282D01*
X0025487Y0384321D01*
X0025643Y0384357D01*
X0025801Y0384388D01*
X0025959Y0384416D01*
X0026118Y0384440D01*
X0026278Y0384460D01*
X0026438Y0384476D01*
X0026598Y0384488D01*
X0026759Y0384496D01*
X0026920Y0384500D01*
X0027080Y0384500D01*
X0027241Y0384496D01*
X0027402Y0384488D01*
X0027562Y0384476D01*
X0027722Y0384460D01*
X0027882Y0384440D01*
X0028041Y0384416D01*
X0028199Y0384388D01*
X0028357Y0384357D01*
X0028513Y0384321D01*
X0028669Y0384282D01*
X0028824Y0384239D01*
X0028978Y0384192D01*
X0029131Y0384141D01*
X0029282Y0384086D01*
X0029432Y0384028D01*
X0029580Y0383966D01*
X0029727Y0383900D01*
X0029872Y0383831D01*
X0030015Y0383758D01*
X0030157Y0383682D01*
X0030296Y0383602D01*
X0030434Y0383519D01*
X0030569Y0383432D01*
X0030703Y0383342D01*
X0030834Y0383249D01*
X0030962Y0383153D01*
X0031088Y0383053D01*
X0031212Y0382950D01*
X0031333Y0382845D01*
X0031452Y0382736D01*
X0031568Y0382625D01*
X0031681Y0382510D01*
X0031791Y0382393D01*
X0031898Y0382273D01*
X0032002Y0382151D01*
X0032103Y0382026D01*
X0032201Y0381898D01*
X0032296Y0381768D01*
X0032388Y0381636D01*
X0032476Y0381502D01*
X0032561Y0381365D01*
X0032643Y0381227D01*
X0032721Y0381086D01*
X0032795Y0380944D01*
X0032866Y0380800D01*
X0032934Y0380654D01*
X0032997Y0380506D01*
X0033058Y0380357D01*
X0033114Y0380206D01*
X0033167Y0380054D01*
X0033216Y0379901D01*
X0033261Y0379747D01*
X0033302Y0379592D01*
X0033340Y0379435D01*
X0033373Y0379278D01*
X0033403Y0379120D01*
X0033429Y0378961D01*
X0033450Y0378802D01*
X0033468Y0378642D01*
X0033482Y0378482D01*
X0033492Y0378321D01*
X0033498Y0378161D01*
X0033500Y0378000D01*
X0033498Y0377839D01*
X0033492Y0377679D01*
X0033482Y0377518D01*
X0033468Y0377358D01*
X0033450Y0377198D01*
X0033429Y0377039D01*
X0033403Y0376880D01*
X0033373Y0376722D01*
X0033340Y0376565D01*
X0033302Y0376408D01*
X0033261Y0376253D01*
X0033216Y0376099D01*
X0033167Y0375946D01*
X0033114Y0375794D01*
X0033058Y0375643D01*
X0032997Y0375494D01*
X0032934Y0375346D01*
X0032866Y0375200D01*
X0032795Y0375056D01*
X0032721Y0374914D01*
X0032643Y0374773D01*
X0032561Y0374635D01*
X0032476Y0374498D01*
X0032388Y0374364D01*
X0032296Y0374232D01*
X0032201Y0374102D01*
X0032103Y0373974D01*
X0032002Y0373849D01*
X0031898Y0373727D01*
X0031791Y0373607D01*
X0031681Y0373490D01*
X0031568Y0373375D01*
X0031452Y0373264D01*
X0031333Y0373155D01*
X0031212Y0373050D01*
X0031088Y0372947D01*
X0030962Y0372847D01*
X0030834Y0372751D01*
X0030703Y0372658D01*
X0030569Y0372568D01*
X0030434Y0372481D01*
X0030296Y0372398D01*
X0030157Y0372318D01*
X0030015Y0372242D01*
X0029872Y0372169D01*
X0029727Y0372100D01*
X0029580Y0372034D01*
X0029432Y0371972D01*
X0029282Y0371914D01*
X0029131Y0371859D01*
X0028978Y0371808D01*
X0028824Y0371761D01*
X0028669Y0371718D01*
X0028513Y0371679D01*
X0028357Y0371643D01*
X0028199Y0371612D01*
X0028041Y0371584D01*
X0027882Y0371560D01*
X0027722Y0371540D01*
X0027562Y0371524D01*
X0027402Y0371512D01*
X0027241Y0371504D01*
X0027080Y0371500D01*
X0026920Y0371500D01*
X0026759Y0371504D01*
X0026598Y0371512D01*
X0026438Y0371524D01*
X0026278Y0371540D01*
X0026118Y0371560D01*
X0025959Y0371584D01*
X0025801Y0371612D01*
X0025643Y0371643D01*
X0025487Y0371679D01*
X0025331Y0371718D01*
X0025176Y0371761D01*
X0025022Y0371808D01*
X0024869Y0371859D01*
X0024718Y0371914D01*
X0024568Y0371972D01*
X0024420Y0372034D01*
X0024273Y0372100D01*
X0024128Y0372169D01*
X0023985Y0372242D01*
X0023843Y0372318D01*
X0023704Y0372398D01*
X0023566Y0372481D01*
X0023431Y0372568D01*
X0023297Y0372658D01*
X0023166Y0372751D01*
X0023038Y0372847D01*
X0022912Y0372947D01*
X0022788Y0373050D01*
X0022667Y0373155D01*
X0022548Y0373264D01*
X0022432Y0373375D01*
X0022319Y0373490D01*
X0022209Y0373607D01*
X0022102Y0373727D01*
X0021998Y0373849D01*
X0021897Y0373974D01*
X0021799Y0374102D01*
X0021704Y0374232D01*
X0021612Y0374364D01*
X0021524Y0374498D01*
X0021439Y0374635D01*
X0021357Y0374773D01*
X0021279Y0374914D01*
X0021205Y0375056D01*
X0021134Y0375200D01*
X0021066Y0375346D01*
X0021003Y0375494D01*
X0020942Y0375643D01*
X0020886Y0375794D01*
X0020833Y0375946D01*
X0020784Y0376099D01*
X0020739Y0376253D01*
X0020698Y0376408D01*
X0020660Y0376565D01*
X0020627Y0376722D01*
X0020597Y0376880D01*
X0020571Y0377039D01*
X0020550Y0377198D01*
X0020532Y0377358D01*
X0020518Y0377518D01*
X0020508Y0377679D01*
X0020502Y0377839D01*
X0020500Y0378000D01*
X0012094Y0486000D02*
X0012096Y0486153D01*
X0012102Y0486307D01*
X0012112Y0486460D01*
X0012126Y0486612D01*
X0012144Y0486765D01*
X0012166Y0486916D01*
X0012191Y0487067D01*
X0012221Y0487218D01*
X0012255Y0487368D01*
X0012292Y0487516D01*
X0012333Y0487664D01*
X0012378Y0487810D01*
X0012427Y0487956D01*
X0012480Y0488100D01*
X0012536Y0488242D01*
X0012596Y0488383D01*
X0012660Y0488523D01*
X0012727Y0488661D01*
X0012798Y0488797D01*
X0012873Y0488931D01*
X0012950Y0489063D01*
X0013032Y0489193D01*
X0013116Y0489321D01*
X0013204Y0489447D01*
X0013295Y0489570D01*
X0013389Y0489691D01*
X0013487Y0489809D01*
X0013587Y0489925D01*
X0013691Y0490038D01*
X0013797Y0490149D01*
X0013906Y0490257D01*
X0014018Y0490362D01*
X0014132Y0490463D01*
X0014250Y0490562D01*
X0014369Y0490658D01*
X0014491Y0490751D01*
X0014616Y0490840D01*
X0014743Y0490927D01*
X0014872Y0491009D01*
X0015003Y0491089D01*
X0015136Y0491165D01*
X0015271Y0491238D01*
X0015408Y0491307D01*
X0015547Y0491372D01*
X0015687Y0491434D01*
X0015829Y0491492D01*
X0015972Y0491547D01*
X0016117Y0491598D01*
X0016263Y0491645D01*
X0016410Y0491688D01*
X0016558Y0491727D01*
X0016707Y0491763D01*
X0016857Y0491794D01*
X0017008Y0491822D01*
X0017159Y0491846D01*
X0017312Y0491866D01*
X0017464Y0491882D01*
X0017617Y0491894D01*
X0017770Y0491902D01*
X0017923Y0491906D01*
X0018077Y0491906D01*
X0018230Y0491902D01*
X0018383Y0491894D01*
X0018536Y0491882D01*
X0018688Y0491866D01*
X0018841Y0491846D01*
X0018992Y0491822D01*
X0019143Y0491794D01*
X0019293Y0491763D01*
X0019442Y0491727D01*
X0019590Y0491688D01*
X0019737Y0491645D01*
X0019883Y0491598D01*
X0020028Y0491547D01*
X0020171Y0491492D01*
X0020313Y0491434D01*
X0020453Y0491372D01*
X0020592Y0491307D01*
X0020729Y0491238D01*
X0020864Y0491165D01*
X0020997Y0491089D01*
X0021128Y0491009D01*
X0021257Y0490927D01*
X0021384Y0490840D01*
X0021509Y0490751D01*
X0021631Y0490658D01*
X0021750Y0490562D01*
X0021868Y0490463D01*
X0021982Y0490362D01*
X0022094Y0490257D01*
X0022203Y0490149D01*
X0022309Y0490038D01*
X0022413Y0489925D01*
X0022513Y0489809D01*
X0022611Y0489691D01*
X0022705Y0489570D01*
X0022796Y0489447D01*
X0022884Y0489321D01*
X0022968Y0489193D01*
X0023050Y0489063D01*
X0023127Y0488931D01*
X0023202Y0488797D01*
X0023273Y0488661D01*
X0023340Y0488523D01*
X0023404Y0488383D01*
X0023464Y0488242D01*
X0023520Y0488100D01*
X0023573Y0487956D01*
X0023622Y0487810D01*
X0023667Y0487664D01*
X0023708Y0487516D01*
X0023745Y0487368D01*
X0023779Y0487218D01*
X0023809Y0487067D01*
X0023834Y0486916D01*
X0023856Y0486765D01*
X0023874Y0486612D01*
X0023888Y0486460D01*
X0023898Y0486307D01*
X0023904Y0486153D01*
X0023906Y0486000D01*
X0023904Y0485847D01*
X0023898Y0485693D01*
X0023888Y0485540D01*
X0023874Y0485388D01*
X0023856Y0485235D01*
X0023834Y0485084D01*
X0023809Y0484933D01*
X0023779Y0484782D01*
X0023745Y0484632D01*
X0023708Y0484484D01*
X0023667Y0484336D01*
X0023622Y0484190D01*
X0023573Y0484044D01*
X0023520Y0483900D01*
X0023464Y0483758D01*
X0023404Y0483617D01*
X0023340Y0483477D01*
X0023273Y0483339D01*
X0023202Y0483203D01*
X0023127Y0483069D01*
X0023050Y0482937D01*
X0022968Y0482807D01*
X0022884Y0482679D01*
X0022796Y0482553D01*
X0022705Y0482430D01*
X0022611Y0482309D01*
X0022513Y0482191D01*
X0022413Y0482075D01*
X0022309Y0481962D01*
X0022203Y0481851D01*
X0022094Y0481743D01*
X0021982Y0481638D01*
X0021868Y0481537D01*
X0021750Y0481438D01*
X0021631Y0481342D01*
X0021509Y0481249D01*
X0021384Y0481160D01*
X0021257Y0481073D01*
X0021128Y0480991D01*
X0020997Y0480911D01*
X0020864Y0480835D01*
X0020729Y0480762D01*
X0020592Y0480693D01*
X0020453Y0480628D01*
X0020313Y0480566D01*
X0020171Y0480508D01*
X0020028Y0480453D01*
X0019883Y0480402D01*
X0019737Y0480355D01*
X0019590Y0480312D01*
X0019442Y0480273D01*
X0019293Y0480237D01*
X0019143Y0480206D01*
X0018992Y0480178D01*
X0018841Y0480154D01*
X0018688Y0480134D01*
X0018536Y0480118D01*
X0018383Y0480106D01*
X0018230Y0480098D01*
X0018077Y0480094D01*
X0017923Y0480094D01*
X0017770Y0480098D01*
X0017617Y0480106D01*
X0017464Y0480118D01*
X0017312Y0480134D01*
X0017159Y0480154D01*
X0017008Y0480178D01*
X0016857Y0480206D01*
X0016707Y0480237D01*
X0016558Y0480273D01*
X0016410Y0480312D01*
X0016263Y0480355D01*
X0016117Y0480402D01*
X0015972Y0480453D01*
X0015829Y0480508D01*
X0015687Y0480566D01*
X0015547Y0480628D01*
X0015408Y0480693D01*
X0015271Y0480762D01*
X0015136Y0480835D01*
X0015003Y0480911D01*
X0014872Y0480991D01*
X0014743Y0481073D01*
X0014616Y0481160D01*
X0014491Y0481249D01*
X0014369Y0481342D01*
X0014250Y0481438D01*
X0014132Y0481537D01*
X0014018Y0481638D01*
X0013906Y0481743D01*
X0013797Y0481851D01*
X0013691Y0481962D01*
X0013587Y0482075D01*
X0013487Y0482191D01*
X0013389Y0482309D01*
X0013295Y0482430D01*
X0013204Y0482553D01*
X0013116Y0482679D01*
X0013032Y0482807D01*
X0012950Y0482937D01*
X0012873Y0483069D01*
X0012798Y0483203D01*
X0012727Y0483339D01*
X0012660Y0483477D01*
X0012596Y0483617D01*
X0012536Y0483758D01*
X0012480Y0483900D01*
X0012427Y0484044D01*
X0012378Y0484190D01*
X0012333Y0484336D01*
X0012292Y0484484D01*
X0012255Y0484632D01*
X0012221Y0484782D01*
X0012191Y0484933D01*
X0012166Y0485084D01*
X0012144Y0485235D01*
X0012126Y0485388D01*
X0012112Y0485540D01*
X0012102Y0485693D01*
X0012096Y0485847D01*
X0012094Y0486000D01*
X0070000Y0378000D02*
X0070002Y0378161D01*
X0070008Y0378321D01*
X0070018Y0378482D01*
X0070032Y0378642D01*
X0070050Y0378802D01*
X0070071Y0378961D01*
X0070097Y0379120D01*
X0070127Y0379278D01*
X0070160Y0379435D01*
X0070198Y0379592D01*
X0070239Y0379747D01*
X0070284Y0379901D01*
X0070333Y0380054D01*
X0070386Y0380206D01*
X0070442Y0380357D01*
X0070503Y0380506D01*
X0070566Y0380654D01*
X0070634Y0380800D01*
X0070705Y0380944D01*
X0070779Y0381086D01*
X0070857Y0381227D01*
X0070939Y0381365D01*
X0071024Y0381502D01*
X0071112Y0381636D01*
X0071204Y0381768D01*
X0071299Y0381898D01*
X0071397Y0382026D01*
X0071498Y0382151D01*
X0071602Y0382273D01*
X0071709Y0382393D01*
X0071819Y0382510D01*
X0071932Y0382625D01*
X0072048Y0382736D01*
X0072167Y0382845D01*
X0072288Y0382950D01*
X0072412Y0383053D01*
X0072538Y0383153D01*
X0072666Y0383249D01*
X0072797Y0383342D01*
X0072931Y0383432D01*
X0073066Y0383519D01*
X0073204Y0383602D01*
X0073343Y0383682D01*
X0073485Y0383758D01*
X0073628Y0383831D01*
X0073773Y0383900D01*
X0073920Y0383966D01*
X0074068Y0384028D01*
X0074218Y0384086D01*
X0074369Y0384141D01*
X0074522Y0384192D01*
X0074676Y0384239D01*
X0074831Y0384282D01*
X0074987Y0384321D01*
X0075143Y0384357D01*
X0075301Y0384388D01*
X0075459Y0384416D01*
X0075618Y0384440D01*
X0075778Y0384460D01*
X0075938Y0384476D01*
X0076098Y0384488D01*
X0076259Y0384496D01*
X0076420Y0384500D01*
X0076580Y0384500D01*
X0076741Y0384496D01*
X0076902Y0384488D01*
X0077062Y0384476D01*
X0077222Y0384460D01*
X0077382Y0384440D01*
X0077541Y0384416D01*
X0077699Y0384388D01*
X0077857Y0384357D01*
X0078013Y0384321D01*
X0078169Y0384282D01*
X0078324Y0384239D01*
X0078478Y0384192D01*
X0078631Y0384141D01*
X0078782Y0384086D01*
X0078932Y0384028D01*
X0079080Y0383966D01*
X0079227Y0383900D01*
X0079372Y0383831D01*
X0079515Y0383758D01*
X0079657Y0383682D01*
X0079796Y0383602D01*
X0079934Y0383519D01*
X0080069Y0383432D01*
X0080203Y0383342D01*
X0080334Y0383249D01*
X0080462Y0383153D01*
X0080588Y0383053D01*
X0080712Y0382950D01*
X0080833Y0382845D01*
X0080952Y0382736D01*
X0081068Y0382625D01*
X0081181Y0382510D01*
X0081291Y0382393D01*
X0081398Y0382273D01*
X0081502Y0382151D01*
X0081603Y0382026D01*
X0081701Y0381898D01*
X0081796Y0381768D01*
X0081888Y0381636D01*
X0081976Y0381502D01*
X0082061Y0381365D01*
X0082143Y0381227D01*
X0082221Y0381086D01*
X0082295Y0380944D01*
X0082366Y0380800D01*
X0082434Y0380654D01*
X0082497Y0380506D01*
X0082558Y0380357D01*
X0082614Y0380206D01*
X0082667Y0380054D01*
X0082716Y0379901D01*
X0082761Y0379747D01*
X0082802Y0379592D01*
X0082840Y0379435D01*
X0082873Y0379278D01*
X0082903Y0379120D01*
X0082929Y0378961D01*
X0082950Y0378802D01*
X0082968Y0378642D01*
X0082982Y0378482D01*
X0082992Y0378321D01*
X0082998Y0378161D01*
X0083000Y0378000D01*
X0082998Y0377839D01*
X0082992Y0377679D01*
X0082982Y0377518D01*
X0082968Y0377358D01*
X0082950Y0377198D01*
X0082929Y0377039D01*
X0082903Y0376880D01*
X0082873Y0376722D01*
X0082840Y0376565D01*
X0082802Y0376408D01*
X0082761Y0376253D01*
X0082716Y0376099D01*
X0082667Y0375946D01*
X0082614Y0375794D01*
X0082558Y0375643D01*
X0082497Y0375494D01*
X0082434Y0375346D01*
X0082366Y0375200D01*
X0082295Y0375056D01*
X0082221Y0374914D01*
X0082143Y0374773D01*
X0082061Y0374635D01*
X0081976Y0374498D01*
X0081888Y0374364D01*
X0081796Y0374232D01*
X0081701Y0374102D01*
X0081603Y0373974D01*
X0081502Y0373849D01*
X0081398Y0373727D01*
X0081291Y0373607D01*
X0081181Y0373490D01*
X0081068Y0373375D01*
X0080952Y0373264D01*
X0080833Y0373155D01*
X0080712Y0373050D01*
X0080588Y0372947D01*
X0080462Y0372847D01*
X0080334Y0372751D01*
X0080203Y0372658D01*
X0080069Y0372568D01*
X0079934Y0372481D01*
X0079796Y0372398D01*
X0079657Y0372318D01*
X0079515Y0372242D01*
X0079372Y0372169D01*
X0079227Y0372100D01*
X0079080Y0372034D01*
X0078932Y0371972D01*
X0078782Y0371914D01*
X0078631Y0371859D01*
X0078478Y0371808D01*
X0078324Y0371761D01*
X0078169Y0371718D01*
X0078013Y0371679D01*
X0077857Y0371643D01*
X0077699Y0371612D01*
X0077541Y0371584D01*
X0077382Y0371560D01*
X0077222Y0371540D01*
X0077062Y0371524D01*
X0076902Y0371512D01*
X0076741Y0371504D01*
X0076580Y0371500D01*
X0076420Y0371500D01*
X0076259Y0371504D01*
X0076098Y0371512D01*
X0075938Y0371524D01*
X0075778Y0371540D01*
X0075618Y0371560D01*
X0075459Y0371584D01*
X0075301Y0371612D01*
X0075143Y0371643D01*
X0074987Y0371679D01*
X0074831Y0371718D01*
X0074676Y0371761D01*
X0074522Y0371808D01*
X0074369Y0371859D01*
X0074218Y0371914D01*
X0074068Y0371972D01*
X0073920Y0372034D01*
X0073773Y0372100D01*
X0073628Y0372169D01*
X0073485Y0372242D01*
X0073343Y0372318D01*
X0073204Y0372398D01*
X0073066Y0372481D01*
X0072931Y0372568D01*
X0072797Y0372658D01*
X0072666Y0372751D01*
X0072538Y0372847D01*
X0072412Y0372947D01*
X0072288Y0373050D01*
X0072167Y0373155D01*
X0072048Y0373264D01*
X0071932Y0373375D01*
X0071819Y0373490D01*
X0071709Y0373607D01*
X0071602Y0373727D01*
X0071498Y0373849D01*
X0071397Y0373974D01*
X0071299Y0374102D01*
X0071204Y0374232D01*
X0071112Y0374364D01*
X0071024Y0374498D01*
X0070939Y0374635D01*
X0070857Y0374773D01*
X0070779Y0374914D01*
X0070705Y0375056D01*
X0070634Y0375200D01*
X0070566Y0375346D01*
X0070503Y0375494D01*
X0070442Y0375643D01*
X0070386Y0375794D01*
X0070333Y0375946D01*
X0070284Y0376099D01*
X0070239Y0376253D01*
X0070198Y0376408D01*
X0070160Y0376565D01*
X0070127Y0376722D01*
X0070097Y0376880D01*
X0070071Y0377039D01*
X0070050Y0377198D01*
X0070032Y0377358D01*
X0070018Y0377518D01*
X0070008Y0377679D01*
X0070002Y0377839D01*
X0070000Y0378000D01*
X0120500Y0378000D02*
X0120502Y0378161D01*
X0120508Y0378321D01*
X0120518Y0378482D01*
X0120532Y0378642D01*
X0120550Y0378802D01*
X0120571Y0378961D01*
X0120597Y0379120D01*
X0120627Y0379278D01*
X0120660Y0379435D01*
X0120698Y0379592D01*
X0120739Y0379747D01*
X0120784Y0379901D01*
X0120833Y0380054D01*
X0120886Y0380206D01*
X0120942Y0380357D01*
X0121003Y0380506D01*
X0121066Y0380654D01*
X0121134Y0380800D01*
X0121205Y0380944D01*
X0121279Y0381086D01*
X0121357Y0381227D01*
X0121439Y0381365D01*
X0121524Y0381502D01*
X0121612Y0381636D01*
X0121704Y0381768D01*
X0121799Y0381898D01*
X0121897Y0382026D01*
X0121998Y0382151D01*
X0122102Y0382273D01*
X0122209Y0382393D01*
X0122319Y0382510D01*
X0122432Y0382625D01*
X0122548Y0382736D01*
X0122667Y0382845D01*
X0122788Y0382950D01*
X0122912Y0383053D01*
X0123038Y0383153D01*
X0123166Y0383249D01*
X0123297Y0383342D01*
X0123431Y0383432D01*
X0123566Y0383519D01*
X0123704Y0383602D01*
X0123843Y0383682D01*
X0123985Y0383758D01*
X0124128Y0383831D01*
X0124273Y0383900D01*
X0124420Y0383966D01*
X0124568Y0384028D01*
X0124718Y0384086D01*
X0124869Y0384141D01*
X0125022Y0384192D01*
X0125176Y0384239D01*
X0125331Y0384282D01*
X0125487Y0384321D01*
X0125643Y0384357D01*
X0125801Y0384388D01*
X0125959Y0384416D01*
X0126118Y0384440D01*
X0126278Y0384460D01*
X0126438Y0384476D01*
X0126598Y0384488D01*
X0126759Y0384496D01*
X0126920Y0384500D01*
X0127080Y0384500D01*
X0127241Y0384496D01*
X0127402Y0384488D01*
X0127562Y0384476D01*
X0127722Y0384460D01*
X0127882Y0384440D01*
X0128041Y0384416D01*
X0128199Y0384388D01*
X0128357Y0384357D01*
X0128513Y0384321D01*
X0128669Y0384282D01*
X0128824Y0384239D01*
X0128978Y0384192D01*
X0129131Y0384141D01*
X0129282Y0384086D01*
X0129432Y0384028D01*
X0129580Y0383966D01*
X0129727Y0383900D01*
X0129872Y0383831D01*
X0130015Y0383758D01*
X0130157Y0383682D01*
X0130296Y0383602D01*
X0130434Y0383519D01*
X0130569Y0383432D01*
X0130703Y0383342D01*
X0130834Y0383249D01*
X0130962Y0383153D01*
X0131088Y0383053D01*
X0131212Y0382950D01*
X0131333Y0382845D01*
X0131452Y0382736D01*
X0131568Y0382625D01*
X0131681Y0382510D01*
X0131791Y0382393D01*
X0131898Y0382273D01*
X0132002Y0382151D01*
X0132103Y0382026D01*
X0132201Y0381898D01*
X0132296Y0381768D01*
X0132388Y0381636D01*
X0132476Y0381502D01*
X0132561Y0381365D01*
X0132643Y0381227D01*
X0132721Y0381086D01*
X0132795Y0380944D01*
X0132866Y0380800D01*
X0132934Y0380654D01*
X0132997Y0380506D01*
X0133058Y0380357D01*
X0133114Y0380206D01*
X0133167Y0380054D01*
X0133216Y0379901D01*
X0133261Y0379747D01*
X0133302Y0379592D01*
X0133340Y0379435D01*
X0133373Y0379278D01*
X0133403Y0379120D01*
X0133429Y0378961D01*
X0133450Y0378802D01*
X0133468Y0378642D01*
X0133482Y0378482D01*
X0133492Y0378321D01*
X0133498Y0378161D01*
X0133500Y0378000D01*
X0133498Y0377839D01*
X0133492Y0377679D01*
X0133482Y0377518D01*
X0133468Y0377358D01*
X0133450Y0377198D01*
X0133429Y0377039D01*
X0133403Y0376880D01*
X0133373Y0376722D01*
X0133340Y0376565D01*
X0133302Y0376408D01*
X0133261Y0376253D01*
X0133216Y0376099D01*
X0133167Y0375946D01*
X0133114Y0375794D01*
X0133058Y0375643D01*
X0132997Y0375494D01*
X0132934Y0375346D01*
X0132866Y0375200D01*
X0132795Y0375056D01*
X0132721Y0374914D01*
X0132643Y0374773D01*
X0132561Y0374635D01*
X0132476Y0374498D01*
X0132388Y0374364D01*
X0132296Y0374232D01*
X0132201Y0374102D01*
X0132103Y0373974D01*
X0132002Y0373849D01*
X0131898Y0373727D01*
X0131791Y0373607D01*
X0131681Y0373490D01*
X0131568Y0373375D01*
X0131452Y0373264D01*
X0131333Y0373155D01*
X0131212Y0373050D01*
X0131088Y0372947D01*
X0130962Y0372847D01*
X0130834Y0372751D01*
X0130703Y0372658D01*
X0130569Y0372568D01*
X0130434Y0372481D01*
X0130296Y0372398D01*
X0130157Y0372318D01*
X0130015Y0372242D01*
X0129872Y0372169D01*
X0129727Y0372100D01*
X0129580Y0372034D01*
X0129432Y0371972D01*
X0129282Y0371914D01*
X0129131Y0371859D01*
X0128978Y0371808D01*
X0128824Y0371761D01*
X0128669Y0371718D01*
X0128513Y0371679D01*
X0128357Y0371643D01*
X0128199Y0371612D01*
X0128041Y0371584D01*
X0127882Y0371560D01*
X0127722Y0371540D01*
X0127562Y0371524D01*
X0127402Y0371512D01*
X0127241Y0371504D01*
X0127080Y0371500D01*
X0126920Y0371500D01*
X0126759Y0371504D01*
X0126598Y0371512D01*
X0126438Y0371524D01*
X0126278Y0371540D01*
X0126118Y0371560D01*
X0125959Y0371584D01*
X0125801Y0371612D01*
X0125643Y0371643D01*
X0125487Y0371679D01*
X0125331Y0371718D01*
X0125176Y0371761D01*
X0125022Y0371808D01*
X0124869Y0371859D01*
X0124718Y0371914D01*
X0124568Y0371972D01*
X0124420Y0372034D01*
X0124273Y0372100D01*
X0124128Y0372169D01*
X0123985Y0372242D01*
X0123843Y0372318D01*
X0123704Y0372398D01*
X0123566Y0372481D01*
X0123431Y0372568D01*
X0123297Y0372658D01*
X0123166Y0372751D01*
X0123038Y0372847D01*
X0122912Y0372947D01*
X0122788Y0373050D01*
X0122667Y0373155D01*
X0122548Y0373264D01*
X0122432Y0373375D01*
X0122319Y0373490D01*
X0122209Y0373607D01*
X0122102Y0373727D01*
X0121998Y0373849D01*
X0121897Y0373974D01*
X0121799Y0374102D01*
X0121704Y0374232D01*
X0121612Y0374364D01*
X0121524Y0374498D01*
X0121439Y0374635D01*
X0121357Y0374773D01*
X0121279Y0374914D01*
X0121205Y0375056D01*
X0121134Y0375200D01*
X0121066Y0375346D01*
X0121003Y0375494D01*
X0120942Y0375643D01*
X0120886Y0375794D01*
X0120833Y0375946D01*
X0120784Y0376099D01*
X0120739Y0376253D01*
X0120698Y0376408D01*
X0120660Y0376565D01*
X0120627Y0376722D01*
X0120597Y0376880D01*
X0120571Y0377039D01*
X0120550Y0377198D01*
X0120532Y0377358D01*
X0120518Y0377518D01*
X0120508Y0377679D01*
X0120502Y0377839D01*
X0120500Y0378000D01*
X0170500Y0378000D02*
X0170502Y0378161D01*
X0170508Y0378321D01*
X0170518Y0378482D01*
X0170532Y0378642D01*
X0170550Y0378802D01*
X0170571Y0378961D01*
X0170597Y0379120D01*
X0170627Y0379278D01*
X0170660Y0379435D01*
X0170698Y0379592D01*
X0170739Y0379747D01*
X0170784Y0379901D01*
X0170833Y0380054D01*
X0170886Y0380206D01*
X0170942Y0380357D01*
X0171003Y0380506D01*
X0171066Y0380654D01*
X0171134Y0380800D01*
X0171205Y0380944D01*
X0171279Y0381086D01*
X0171357Y0381227D01*
X0171439Y0381365D01*
X0171524Y0381502D01*
X0171612Y0381636D01*
X0171704Y0381768D01*
X0171799Y0381898D01*
X0171897Y0382026D01*
X0171998Y0382151D01*
X0172102Y0382273D01*
X0172209Y0382393D01*
X0172319Y0382510D01*
X0172432Y0382625D01*
X0172548Y0382736D01*
X0172667Y0382845D01*
X0172788Y0382950D01*
X0172912Y0383053D01*
X0173038Y0383153D01*
X0173166Y0383249D01*
X0173297Y0383342D01*
X0173431Y0383432D01*
X0173566Y0383519D01*
X0173704Y0383602D01*
X0173843Y0383682D01*
X0173985Y0383758D01*
X0174128Y0383831D01*
X0174273Y0383900D01*
X0174420Y0383966D01*
X0174568Y0384028D01*
X0174718Y0384086D01*
X0174869Y0384141D01*
X0175022Y0384192D01*
X0175176Y0384239D01*
X0175331Y0384282D01*
X0175487Y0384321D01*
X0175643Y0384357D01*
X0175801Y0384388D01*
X0175959Y0384416D01*
X0176118Y0384440D01*
X0176278Y0384460D01*
X0176438Y0384476D01*
X0176598Y0384488D01*
X0176759Y0384496D01*
X0176920Y0384500D01*
X0177080Y0384500D01*
X0177241Y0384496D01*
X0177402Y0384488D01*
X0177562Y0384476D01*
X0177722Y0384460D01*
X0177882Y0384440D01*
X0178041Y0384416D01*
X0178199Y0384388D01*
X0178357Y0384357D01*
X0178513Y0384321D01*
X0178669Y0384282D01*
X0178824Y0384239D01*
X0178978Y0384192D01*
X0179131Y0384141D01*
X0179282Y0384086D01*
X0179432Y0384028D01*
X0179580Y0383966D01*
X0179727Y0383900D01*
X0179872Y0383831D01*
X0180015Y0383758D01*
X0180157Y0383682D01*
X0180296Y0383602D01*
X0180434Y0383519D01*
X0180569Y0383432D01*
X0180703Y0383342D01*
X0180834Y0383249D01*
X0180962Y0383153D01*
X0181088Y0383053D01*
X0181212Y0382950D01*
X0181333Y0382845D01*
X0181452Y0382736D01*
X0181568Y0382625D01*
X0181681Y0382510D01*
X0181791Y0382393D01*
X0181898Y0382273D01*
X0182002Y0382151D01*
X0182103Y0382026D01*
X0182201Y0381898D01*
X0182296Y0381768D01*
X0182388Y0381636D01*
X0182476Y0381502D01*
X0182561Y0381365D01*
X0182643Y0381227D01*
X0182721Y0381086D01*
X0182795Y0380944D01*
X0182866Y0380800D01*
X0182934Y0380654D01*
X0182997Y0380506D01*
X0183058Y0380357D01*
X0183114Y0380206D01*
X0183167Y0380054D01*
X0183216Y0379901D01*
X0183261Y0379747D01*
X0183302Y0379592D01*
X0183340Y0379435D01*
X0183373Y0379278D01*
X0183403Y0379120D01*
X0183429Y0378961D01*
X0183450Y0378802D01*
X0183468Y0378642D01*
X0183482Y0378482D01*
X0183492Y0378321D01*
X0183498Y0378161D01*
X0183500Y0378000D01*
X0183498Y0377839D01*
X0183492Y0377679D01*
X0183482Y0377518D01*
X0183468Y0377358D01*
X0183450Y0377198D01*
X0183429Y0377039D01*
X0183403Y0376880D01*
X0183373Y0376722D01*
X0183340Y0376565D01*
X0183302Y0376408D01*
X0183261Y0376253D01*
X0183216Y0376099D01*
X0183167Y0375946D01*
X0183114Y0375794D01*
X0183058Y0375643D01*
X0182997Y0375494D01*
X0182934Y0375346D01*
X0182866Y0375200D01*
X0182795Y0375056D01*
X0182721Y0374914D01*
X0182643Y0374773D01*
X0182561Y0374635D01*
X0182476Y0374498D01*
X0182388Y0374364D01*
X0182296Y0374232D01*
X0182201Y0374102D01*
X0182103Y0373974D01*
X0182002Y0373849D01*
X0181898Y0373727D01*
X0181791Y0373607D01*
X0181681Y0373490D01*
X0181568Y0373375D01*
X0181452Y0373264D01*
X0181333Y0373155D01*
X0181212Y0373050D01*
X0181088Y0372947D01*
X0180962Y0372847D01*
X0180834Y0372751D01*
X0180703Y0372658D01*
X0180569Y0372568D01*
X0180434Y0372481D01*
X0180296Y0372398D01*
X0180157Y0372318D01*
X0180015Y0372242D01*
X0179872Y0372169D01*
X0179727Y0372100D01*
X0179580Y0372034D01*
X0179432Y0371972D01*
X0179282Y0371914D01*
X0179131Y0371859D01*
X0178978Y0371808D01*
X0178824Y0371761D01*
X0178669Y0371718D01*
X0178513Y0371679D01*
X0178357Y0371643D01*
X0178199Y0371612D01*
X0178041Y0371584D01*
X0177882Y0371560D01*
X0177722Y0371540D01*
X0177562Y0371524D01*
X0177402Y0371512D01*
X0177241Y0371504D01*
X0177080Y0371500D01*
X0176920Y0371500D01*
X0176759Y0371504D01*
X0176598Y0371512D01*
X0176438Y0371524D01*
X0176278Y0371540D01*
X0176118Y0371560D01*
X0175959Y0371584D01*
X0175801Y0371612D01*
X0175643Y0371643D01*
X0175487Y0371679D01*
X0175331Y0371718D01*
X0175176Y0371761D01*
X0175022Y0371808D01*
X0174869Y0371859D01*
X0174718Y0371914D01*
X0174568Y0371972D01*
X0174420Y0372034D01*
X0174273Y0372100D01*
X0174128Y0372169D01*
X0173985Y0372242D01*
X0173843Y0372318D01*
X0173704Y0372398D01*
X0173566Y0372481D01*
X0173431Y0372568D01*
X0173297Y0372658D01*
X0173166Y0372751D01*
X0173038Y0372847D01*
X0172912Y0372947D01*
X0172788Y0373050D01*
X0172667Y0373155D01*
X0172548Y0373264D01*
X0172432Y0373375D01*
X0172319Y0373490D01*
X0172209Y0373607D01*
X0172102Y0373727D01*
X0171998Y0373849D01*
X0171897Y0373974D01*
X0171799Y0374102D01*
X0171704Y0374232D01*
X0171612Y0374364D01*
X0171524Y0374498D01*
X0171439Y0374635D01*
X0171357Y0374773D01*
X0171279Y0374914D01*
X0171205Y0375056D01*
X0171134Y0375200D01*
X0171066Y0375346D01*
X0171003Y0375494D01*
X0170942Y0375643D01*
X0170886Y0375794D01*
X0170833Y0375946D01*
X0170784Y0376099D01*
X0170739Y0376253D01*
X0170698Y0376408D01*
X0170660Y0376565D01*
X0170627Y0376722D01*
X0170597Y0376880D01*
X0170571Y0377039D01*
X0170550Y0377198D01*
X0170532Y0377358D01*
X0170518Y0377518D01*
X0170508Y0377679D01*
X0170502Y0377839D01*
X0170500Y0378000D01*
X0176594Y0486000D02*
X0176596Y0486153D01*
X0176602Y0486307D01*
X0176612Y0486460D01*
X0176626Y0486612D01*
X0176644Y0486765D01*
X0176666Y0486916D01*
X0176691Y0487067D01*
X0176721Y0487218D01*
X0176755Y0487368D01*
X0176792Y0487516D01*
X0176833Y0487664D01*
X0176878Y0487810D01*
X0176927Y0487956D01*
X0176980Y0488100D01*
X0177036Y0488242D01*
X0177096Y0488383D01*
X0177160Y0488523D01*
X0177227Y0488661D01*
X0177298Y0488797D01*
X0177373Y0488931D01*
X0177450Y0489063D01*
X0177532Y0489193D01*
X0177616Y0489321D01*
X0177704Y0489447D01*
X0177795Y0489570D01*
X0177889Y0489691D01*
X0177987Y0489809D01*
X0178087Y0489925D01*
X0178191Y0490038D01*
X0178297Y0490149D01*
X0178406Y0490257D01*
X0178518Y0490362D01*
X0178632Y0490463D01*
X0178750Y0490562D01*
X0178869Y0490658D01*
X0178991Y0490751D01*
X0179116Y0490840D01*
X0179243Y0490927D01*
X0179372Y0491009D01*
X0179503Y0491089D01*
X0179636Y0491165D01*
X0179771Y0491238D01*
X0179908Y0491307D01*
X0180047Y0491372D01*
X0180187Y0491434D01*
X0180329Y0491492D01*
X0180472Y0491547D01*
X0180617Y0491598D01*
X0180763Y0491645D01*
X0180910Y0491688D01*
X0181058Y0491727D01*
X0181207Y0491763D01*
X0181357Y0491794D01*
X0181508Y0491822D01*
X0181659Y0491846D01*
X0181812Y0491866D01*
X0181964Y0491882D01*
X0182117Y0491894D01*
X0182270Y0491902D01*
X0182423Y0491906D01*
X0182577Y0491906D01*
X0182730Y0491902D01*
X0182883Y0491894D01*
X0183036Y0491882D01*
X0183188Y0491866D01*
X0183341Y0491846D01*
X0183492Y0491822D01*
X0183643Y0491794D01*
X0183793Y0491763D01*
X0183942Y0491727D01*
X0184090Y0491688D01*
X0184237Y0491645D01*
X0184383Y0491598D01*
X0184528Y0491547D01*
X0184671Y0491492D01*
X0184813Y0491434D01*
X0184953Y0491372D01*
X0185092Y0491307D01*
X0185229Y0491238D01*
X0185364Y0491165D01*
X0185497Y0491089D01*
X0185628Y0491009D01*
X0185757Y0490927D01*
X0185884Y0490840D01*
X0186009Y0490751D01*
X0186131Y0490658D01*
X0186250Y0490562D01*
X0186368Y0490463D01*
X0186482Y0490362D01*
X0186594Y0490257D01*
X0186703Y0490149D01*
X0186809Y0490038D01*
X0186913Y0489925D01*
X0187013Y0489809D01*
X0187111Y0489691D01*
X0187205Y0489570D01*
X0187296Y0489447D01*
X0187384Y0489321D01*
X0187468Y0489193D01*
X0187550Y0489063D01*
X0187627Y0488931D01*
X0187702Y0488797D01*
X0187773Y0488661D01*
X0187840Y0488523D01*
X0187904Y0488383D01*
X0187964Y0488242D01*
X0188020Y0488100D01*
X0188073Y0487956D01*
X0188122Y0487810D01*
X0188167Y0487664D01*
X0188208Y0487516D01*
X0188245Y0487368D01*
X0188279Y0487218D01*
X0188309Y0487067D01*
X0188334Y0486916D01*
X0188356Y0486765D01*
X0188374Y0486612D01*
X0188388Y0486460D01*
X0188398Y0486307D01*
X0188404Y0486153D01*
X0188406Y0486000D01*
X0188404Y0485847D01*
X0188398Y0485693D01*
X0188388Y0485540D01*
X0188374Y0485388D01*
X0188356Y0485235D01*
X0188334Y0485084D01*
X0188309Y0484933D01*
X0188279Y0484782D01*
X0188245Y0484632D01*
X0188208Y0484484D01*
X0188167Y0484336D01*
X0188122Y0484190D01*
X0188073Y0484044D01*
X0188020Y0483900D01*
X0187964Y0483758D01*
X0187904Y0483617D01*
X0187840Y0483477D01*
X0187773Y0483339D01*
X0187702Y0483203D01*
X0187627Y0483069D01*
X0187550Y0482937D01*
X0187468Y0482807D01*
X0187384Y0482679D01*
X0187296Y0482553D01*
X0187205Y0482430D01*
X0187111Y0482309D01*
X0187013Y0482191D01*
X0186913Y0482075D01*
X0186809Y0481962D01*
X0186703Y0481851D01*
X0186594Y0481743D01*
X0186482Y0481638D01*
X0186368Y0481537D01*
X0186250Y0481438D01*
X0186131Y0481342D01*
X0186009Y0481249D01*
X0185884Y0481160D01*
X0185757Y0481073D01*
X0185628Y0480991D01*
X0185497Y0480911D01*
X0185364Y0480835D01*
X0185229Y0480762D01*
X0185092Y0480693D01*
X0184953Y0480628D01*
X0184813Y0480566D01*
X0184671Y0480508D01*
X0184528Y0480453D01*
X0184383Y0480402D01*
X0184237Y0480355D01*
X0184090Y0480312D01*
X0183942Y0480273D01*
X0183793Y0480237D01*
X0183643Y0480206D01*
X0183492Y0480178D01*
X0183341Y0480154D01*
X0183188Y0480134D01*
X0183036Y0480118D01*
X0182883Y0480106D01*
X0182730Y0480098D01*
X0182577Y0480094D01*
X0182423Y0480094D01*
X0182270Y0480098D01*
X0182117Y0480106D01*
X0181964Y0480118D01*
X0181812Y0480134D01*
X0181659Y0480154D01*
X0181508Y0480178D01*
X0181357Y0480206D01*
X0181207Y0480237D01*
X0181058Y0480273D01*
X0180910Y0480312D01*
X0180763Y0480355D01*
X0180617Y0480402D01*
X0180472Y0480453D01*
X0180329Y0480508D01*
X0180187Y0480566D01*
X0180047Y0480628D01*
X0179908Y0480693D01*
X0179771Y0480762D01*
X0179636Y0480835D01*
X0179503Y0480911D01*
X0179372Y0480991D01*
X0179243Y0481073D01*
X0179116Y0481160D01*
X0178991Y0481249D01*
X0178869Y0481342D01*
X0178750Y0481438D01*
X0178632Y0481537D01*
X0178518Y0481638D01*
X0178406Y0481743D01*
X0178297Y0481851D01*
X0178191Y0481962D01*
X0178087Y0482075D01*
X0177987Y0482191D01*
X0177889Y0482309D01*
X0177795Y0482430D01*
X0177704Y0482553D01*
X0177616Y0482679D01*
X0177532Y0482807D01*
X0177450Y0482937D01*
X0177373Y0483069D01*
X0177298Y0483203D01*
X0177227Y0483339D01*
X0177160Y0483477D01*
X0177096Y0483617D01*
X0177036Y0483758D01*
X0176980Y0483900D01*
X0176927Y0484044D01*
X0176878Y0484190D01*
X0176833Y0484336D01*
X0176792Y0484484D01*
X0176755Y0484632D01*
X0176721Y0484782D01*
X0176691Y0484933D01*
X0176666Y0485084D01*
X0176644Y0485235D01*
X0176626Y0485388D01*
X0176612Y0485540D01*
X0176602Y0485693D01*
X0176596Y0485847D01*
X0176594Y0486000D01*
X0176594Y0018000D02*
X0176596Y0018153D01*
X0176602Y0018307D01*
X0176612Y0018460D01*
X0176626Y0018612D01*
X0176644Y0018765D01*
X0176666Y0018916D01*
X0176691Y0019067D01*
X0176721Y0019218D01*
X0176755Y0019368D01*
X0176792Y0019516D01*
X0176833Y0019664D01*
X0176878Y0019810D01*
X0176927Y0019956D01*
X0176980Y0020100D01*
X0177036Y0020242D01*
X0177096Y0020383D01*
X0177160Y0020523D01*
X0177227Y0020661D01*
X0177298Y0020797D01*
X0177373Y0020931D01*
X0177450Y0021063D01*
X0177532Y0021193D01*
X0177616Y0021321D01*
X0177704Y0021447D01*
X0177795Y0021570D01*
X0177889Y0021691D01*
X0177987Y0021809D01*
X0178087Y0021925D01*
X0178191Y0022038D01*
X0178297Y0022149D01*
X0178406Y0022257D01*
X0178518Y0022362D01*
X0178632Y0022463D01*
X0178750Y0022562D01*
X0178869Y0022658D01*
X0178991Y0022751D01*
X0179116Y0022840D01*
X0179243Y0022927D01*
X0179372Y0023009D01*
X0179503Y0023089D01*
X0179636Y0023165D01*
X0179771Y0023238D01*
X0179908Y0023307D01*
X0180047Y0023372D01*
X0180187Y0023434D01*
X0180329Y0023492D01*
X0180472Y0023547D01*
X0180617Y0023598D01*
X0180763Y0023645D01*
X0180910Y0023688D01*
X0181058Y0023727D01*
X0181207Y0023763D01*
X0181357Y0023794D01*
X0181508Y0023822D01*
X0181659Y0023846D01*
X0181812Y0023866D01*
X0181964Y0023882D01*
X0182117Y0023894D01*
X0182270Y0023902D01*
X0182423Y0023906D01*
X0182577Y0023906D01*
X0182730Y0023902D01*
X0182883Y0023894D01*
X0183036Y0023882D01*
X0183188Y0023866D01*
X0183341Y0023846D01*
X0183492Y0023822D01*
X0183643Y0023794D01*
X0183793Y0023763D01*
X0183942Y0023727D01*
X0184090Y0023688D01*
X0184237Y0023645D01*
X0184383Y0023598D01*
X0184528Y0023547D01*
X0184671Y0023492D01*
X0184813Y0023434D01*
X0184953Y0023372D01*
X0185092Y0023307D01*
X0185229Y0023238D01*
X0185364Y0023165D01*
X0185497Y0023089D01*
X0185628Y0023009D01*
X0185757Y0022927D01*
X0185884Y0022840D01*
X0186009Y0022751D01*
X0186131Y0022658D01*
X0186250Y0022562D01*
X0186368Y0022463D01*
X0186482Y0022362D01*
X0186594Y0022257D01*
X0186703Y0022149D01*
X0186809Y0022038D01*
X0186913Y0021925D01*
X0187013Y0021809D01*
X0187111Y0021691D01*
X0187205Y0021570D01*
X0187296Y0021447D01*
X0187384Y0021321D01*
X0187468Y0021193D01*
X0187550Y0021063D01*
X0187627Y0020931D01*
X0187702Y0020797D01*
X0187773Y0020661D01*
X0187840Y0020523D01*
X0187904Y0020383D01*
X0187964Y0020242D01*
X0188020Y0020100D01*
X0188073Y0019956D01*
X0188122Y0019810D01*
X0188167Y0019664D01*
X0188208Y0019516D01*
X0188245Y0019368D01*
X0188279Y0019218D01*
X0188309Y0019067D01*
X0188334Y0018916D01*
X0188356Y0018765D01*
X0188374Y0018612D01*
X0188388Y0018460D01*
X0188398Y0018307D01*
X0188404Y0018153D01*
X0188406Y0018000D01*
X0188404Y0017847D01*
X0188398Y0017693D01*
X0188388Y0017540D01*
X0188374Y0017388D01*
X0188356Y0017235D01*
X0188334Y0017084D01*
X0188309Y0016933D01*
X0188279Y0016782D01*
X0188245Y0016632D01*
X0188208Y0016484D01*
X0188167Y0016336D01*
X0188122Y0016190D01*
X0188073Y0016044D01*
X0188020Y0015900D01*
X0187964Y0015758D01*
X0187904Y0015617D01*
X0187840Y0015477D01*
X0187773Y0015339D01*
X0187702Y0015203D01*
X0187627Y0015069D01*
X0187550Y0014937D01*
X0187468Y0014807D01*
X0187384Y0014679D01*
X0187296Y0014553D01*
X0187205Y0014430D01*
X0187111Y0014309D01*
X0187013Y0014191D01*
X0186913Y0014075D01*
X0186809Y0013962D01*
X0186703Y0013851D01*
X0186594Y0013743D01*
X0186482Y0013638D01*
X0186368Y0013537D01*
X0186250Y0013438D01*
X0186131Y0013342D01*
X0186009Y0013249D01*
X0185884Y0013160D01*
X0185757Y0013073D01*
X0185628Y0012991D01*
X0185497Y0012911D01*
X0185364Y0012835D01*
X0185229Y0012762D01*
X0185092Y0012693D01*
X0184953Y0012628D01*
X0184813Y0012566D01*
X0184671Y0012508D01*
X0184528Y0012453D01*
X0184383Y0012402D01*
X0184237Y0012355D01*
X0184090Y0012312D01*
X0183942Y0012273D01*
X0183793Y0012237D01*
X0183643Y0012206D01*
X0183492Y0012178D01*
X0183341Y0012154D01*
X0183188Y0012134D01*
X0183036Y0012118D01*
X0182883Y0012106D01*
X0182730Y0012098D01*
X0182577Y0012094D01*
X0182423Y0012094D01*
X0182270Y0012098D01*
X0182117Y0012106D01*
X0181964Y0012118D01*
X0181812Y0012134D01*
X0181659Y0012154D01*
X0181508Y0012178D01*
X0181357Y0012206D01*
X0181207Y0012237D01*
X0181058Y0012273D01*
X0180910Y0012312D01*
X0180763Y0012355D01*
X0180617Y0012402D01*
X0180472Y0012453D01*
X0180329Y0012508D01*
X0180187Y0012566D01*
X0180047Y0012628D01*
X0179908Y0012693D01*
X0179771Y0012762D01*
X0179636Y0012835D01*
X0179503Y0012911D01*
X0179372Y0012991D01*
X0179243Y0013073D01*
X0179116Y0013160D01*
X0178991Y0013249D01*
X0178869Y0013342D01*
X0178750Y0013438D01*
X0178632Y0013537D01*
X0178518Y0013638D01*
X0178406Y0013743D01*
X0178297Y0013851D01*
X0178191Y0013962D01*
X0178087Y0014075D01*
X0177987Y0014191D01*
X0177889Y0014309D01*
X0177795Y0014430D01*
X0177704Y0014553D01*
X0177616Y0014679D01*
X0177532Y0014807D01*
X0177450Y0014937D01*
X0177373Y0015069D01*
X0177298Y0015203D01*
X0177227Y0015339D01*
X0177160Y0015477D01*
X0177096Y0015617D01*
X0177036Y0015758D01*
X0176980Y0015900D01*
X0176927Y0016044D01*
X0176878Y0016190D01*
X0176833Y0016336D01*
X0176792Y0016484D01*
X0176755Y0016632D01*
X0176721Y0016782D01*
X0176691Y0016933D01*
X0176666Y0017084D01*
X0176644Y0017235D01*
X0176626Y0017388D01*
X0176612Y0017540D01*
X0176602Y0017693D01*
X0176596Y0017847D01*
X0176594Y0018000D01*
D11*
X0077000Y0017000D03*
X0049000Y0017000D03*
X0018000Y0325000D03*
X0018000Y0353000D03*
X0066500Y0491500D03*
X0094000Y0491500D03*
X0121500Y0491500D03*
X0149000Y0491500D03*
D12*
X0135220Y0491500D03*
X0107720Y0491500D03*
X0080220Y0491500D03*
X0052720Y0491500D03*
X0018000Y0339220D03*
X0018000Y0311220D03*
X0062780Y0017000D03*
X0090780Y0017000D03*
D13*
X0086500Y0443700D02*
X0086500Y0450300D01*
X0076500Y0450300D02*
X0076500Y0443700D01*
X0066500Y0443700D02*
X0066500Y0450300D01*
X0037000Y0450300D02*
X0037000Y0443700D01*
X0027000Y0443700D02*
X0027000Y0450300D01*
X0017000Y0450300D02*
X0017000Y0443700D01*
X0117000Y0443700D02*
X0117000Y0450300D01*
X0127000Y0450300D02*
X0127000Y0443700D01*
X0137000Y0443700D02*
X0137000Y0450300D01*
X0167000Y0450300D02*
X0167000Y0443700D01*
X0177000Y0443700D02*
X0177000Y0450300D01*
X0187000Y0450300D02*
X0187000Y0443700D01*
D14*
X0018000Y0180000D03*
X0018000Y0175000D03*
X0018000Y0170000D03*
X0018000Y0165000D03*
X0018000Y0160000D03*
X0013000Y0160000D03*
X0013000Y0165000D03*
X0013000Y0170000D03*
X0013000Y0175000D03*
X0013000Y0180000D03*
D15*
X0177000Y0177000D03*
X0177000Y0167000D03*
X0177000Y0187000D03*
X0177000Y0197000D03*
X0177000Y0217000D03*
X0177000Y0227000D03*
X0177000Y0237000D03*
X0177000Y0247000D03*
X0177000Y0257000D03*
X0177000Y0267000D03*
X0177000Y0277000D03*
X0177000Y0287000D03*
X0187000Y0287000D03*
X0187000Y0277000D03*
X0187000Y0267000D03*
X0187000Y0257000D03*
X0187000Y0247000D03*
X0187000Y0237000D03*
X0187000Y0227000D03*
X0187000Y0217000D03*
X0187000Y0197000D03*
X0187000Y0187000D03*
X0187000Y0177000D03*
X0187000Y0167000D03*
D16*
X0092000Y0307000D03*
D17*
X0082000Y0307000D03*
X0072000Y0307000D03*
X0062000Y0307000D03*
D18*
X0130657Y0217000D03*
X0150343Y0217000D03*
D19*
X0131500Y0207000D03*
X0125500Y0207000D03*
D20*
X0118000Y0205000D03*
X0106000Y0185000D03*
X0100000Y0196500D03*
X0106000Y0164000D03*
X0106000Y0157000D03*
X0113500Y0157000D03*
X0120000Y0134000D03*
X0119000Y0121000D03*
X0121000Y0112000D03*
X0116000Y0098000D03*
X0119000Y0085000D03*
X0121500Y0081500D03*
X0113000Y0052000D03*
X0113000Y0043000D03*
X0117000Y0031000D03*
X0122000Y0031000D03*
X0127000Y0031000D03*
X0134000Y0019000D03*
X0134000Y0012000D03*
X0155000Y0072000D03*
X0159000Y0057000D03*
X0159000Y0052000D03*
X0159000Y0047000D03*
X0165000Y0052000D03*
X0176000Y0081000D03*
X0179000Y0072000D03*
X0183000Y0075000D03*
X0189000Y0085500D03*
X0192000Y0090500D03*
X0191000Y0096000D03*
X0182000Y0102000D03*
X0177000Y0099000D03*
X0167000Y0109000D03*
X0166000Y0097000D03*
X0164000Y0086000D03*
X0157000Y0093000D03*
X0153000Y0102000D03*
X0158000Y0110000D03*
X0158000Y0119500D03*
X0147000Y0093000D03*
X0141000Y0114000D03*
X0135000Y0095000D03*
X0131500Y0114000D03*
X0135000Y0134000D03*
X0137000Y0152000D03*
X0133000Y0167000D03*
X0133000Y0177000D03*
X0133000Y0187000D03*
X0126000Y0164000D03*
X0099000Y0134000D03*
X0081500Y0180500D03*
X0077500Y0184500D03*
X0073500Y0188500D03*
X0069500Y0192500D03*
X0072000Y0173000D03*
X0065500Y0173000D03*
X0069000Y0159500D03*
X0064500Y0155000D03*
X0056500Y0173000D03*
X0046000Y0146000D03*
X0054000Y0137500D03*
X0040000Y0173500D03*
X0040000Y0180000D03*
X0036000Y0183000D03*
X0036000Y0192000D03*
X0036000Y0205000D03*
X0041000Y0222000D03*
X0033000Y0228000D03*
X0025000Y0198000D03*
X0015000Y0186000D03*
X0012500Y0204000D03*
X0015000Y0230500D03*
X0010500Y0258500D03*
X0027000Y0278000D03*
X0049000Y0280000D03*
X0064000Y0287000D03*
X0068500Y0324000D03*
X0069500Y0349500D03*
X0086000Y0324000D03*
X0098500Y0349500D03*
X0115000Y0324000D03*
X0127500Y0349500D03*
X0144000Y0324000D03*
X0129000Y0286500D03*
X0121500Y0264000D03*
X0091000Y0289000D03*
X0086000Y0271500D03*
X0086000Y0264000D03*
X0089000Y0231000D03*
X0081500Y0221500D03*
X0054000Y0247000D03*
X0036000Y0176500D03*
X0022000Y0146000D03*
X0034000Y0127000D03*
X0046000Y0096000D03*
X0039500Y0092000D03*
X0044500Y0073500D03*
X0044500Y0066500D03*
X0037500Y0066500D03*
X0030500Y0052000D03*
X0024000Y0052000D03*
X0024000Y0047000D03*
X0024000Y0057000D03*
X0020000Y0073500D03*
X0054500Y0051000D03*
X0054500Y0044000D03*
X0075500Y0084500D03*
X0079500Y0072000D03*
X0084000Y0057000D03*
X0084000Y0052000D03*
X0084000Y0047000D03*
X0090000Y0052000D03*
X0104500Y0072000D03*
X0076500Y0109500D03*
X0156500Y0251500D03*
X0162000Y0150000D03*
X0174500Y0150000D03*
X0182000Y0128000D03*
X0187000Y0052000D03*
X0187000Y0043000D03*
X0040000Y0349500D03*
X0046000Y0463500D03*
X0082000Y0465000D03*
X0120500Y0465000D03*
X0170000Y0465000D03*
D21*
X0158000Y0119500D02*
X0158000Y0110000D01*
X0157000Y0093000D02*
X0171000Y0093000D01*
X0177000Y0099000D01*
D22*
X0131500Y0207000D02*
X0141657Y0217157D01*
X0150500Y0217157D01*
X0150343Y0217000D01*
X0125500Y0207000D02*
X0123500Y0205000D01*
X0118000Y0205000D01*
D23*
X0118000Y0233000D02*
X0156000Y0233000D01*
X0175000Y0252000D01*
X0182000Y0252000D01*
X0187000Y0257000D01*
X0182000Y0262000D02*
X0187000Y0267000D01*
X0182000Y0272000D02*
X0187000Y0277000D01*
X0182000Y0282000D02*
X0187000Y0287000D01*
X0182000Y0282000D02*
X0174500Y0282000D01*
X0171500Y0279000D01*
X0171500Y0276500D01*
X0140000Y0245000D01*
X0112000Y0245000D01*
X0047000Y0180000D01*
X0040000Y0180000D01*
X0040000Y0173500D02*
X0046500Y0173500D01*
X0114000Y0241000D01*
X0142000Y0241000D01*
X0173000Y0272000D01*
X0182000Y0272000D01*
X0177000Y0267000D02*
X0170000Y0260000D01*
X0170000Y0256000D01*
X0153000Y0239000D01*
X0115000Y0239000D01*
X0069500Y0193500D01*
X0069500Y0192500D01*
X0073500Y0194500D02*
X0073500Y0188500D01*
X0073500Y0194500D02*
X0116000Y0237000D01*
X0154000Y0237000D01*
X0172000Y0255000D01*
X0172000Y0259500D01*
X0174500Y0262000D01*
X0182000Y0262000D01*
X0177000Y0257000D02*
X0155000Y0235000D01*
X0117000Y0235000D01*
X0077500Y0195500D01*
X0077500Y0184500D01*
X0081500Y0180500D02*
X0081500Y0196500D01*
X0118000Y0233000D01*
X0113000Y0243000D02*
X0141000Y0243000D01*
X0175000Y0277000D01*
X0177000Y0277000D01*
X0169000Y0279500D02*
X0175500Y0286000D01*
X0176000Y0286000D01*
X0177000Y0287000D01*
X0169000Y0279500D02*
X0169000Y0277000D01*
X0139000Y0247000D01*
X0111000Y0247000D01*
X0047000Y0183000D01*
X0036000Y0183000D01*
X0036000Y0192000D02*
X0028000Y0192000D01*
X0023500Y0187500D01*
X0023500Y0182000D01*
X0021500Y0180000D01*
X0018000Y0180000D01*
X0036000Y0176500D02*
X0046500Y0176500D01*
X0113000Y0243000D01*
X0072000Y0173000D02*
X0072000Y0160000D01*
X0073000Y0159000D01*
X0073000Y0104500D01*
X0087500Y0090000D01*
X0158500Y0090000D01*
X0159500Y0091000D01*
X0189000Y0091000D01*
X0189500Y0090500D01*
X0192000Y0090500D01*
X0189000Y0085500D02*
X0170500Y0085500D01*
X0167000Y0082000D01*
X0132000Y0082000D01*
X0126000Y0088000D01*
X0086500Y0088000D01*
X0070500Y0104000D01*
X0070500Y0158000D01*
X0069000Y0159500D01*
X0066000Y0158000D02*
X0068000Y0156000D01*
X0068000Y0103500D01*
X0085500Y0086000D01*
X0118000Y0086000D01*
X0119000Y0085000D01*
X0118000Y0081500D02*
X0121500Y0081500D01*
X0118000Y0081500D02*
X0115500Y0084000D01*
X0084500Y0084000D01*
X0064500Y0104000D01*
X0064500Y0155000D01*
X0066000Y0158000D02*
X0066000Y0172500D01*
X0065500Y0173000D01*
X0062000Y0437000D02*
X0062000Y0466000D01*
X0073500Y0477500D01*
X0073500Y0485597D01*
X0074000Y0486804D01*
X0074000Y0496196D01*
X0073500Y0497403D01*
X0073500Y0498461D01*
X0088011Y0498461D01*
X0087033Y0497483D01*
X0086500Y0496196D01*
X0086500Y0486804D01*
X0087033Y0485517D01*
X0088017Y0484533D01*
X0089304Y0484000D01*
X0098000Y0484000D01*
X0098000Y0437000D01*
X0088094Y0437000D01*
X0090352Y0437935D01*
X0092265Y0439848D01*
X0093300Y0442347D01*
X0093300Y0451653D01*
X0092265Y0454152D01*
X0090352Y0456065D01*
X0087853Y0457100D01*
X0085147Y0457100D01*
X0082648Y0456065D01*
X0081500Y0454917D01*
X0080352Y0456065D01*
X0077853Y0457100D01*
X0075147Y0457100D01*
X0072648Y0456065D01*
X0070735Y0454152D01*
X0069700Y0451653D01*
X0069700Y0442347D01*
X0070735Y0439848D01*
X0072648Y0437935D01*
X0074906Y0437000D01*
X0062000Y0437000D01*
X0062000Y0437351D02*
X0074059Y0437351D01*
X0072234Y0438349D02*
X0062000Y0438349D01*
X0062000Y0439348D02*
X0071235Y0439348D01*
X0070529Y0440346D02*
X0062000Y0440346D01*
X0062000Y0441345D02*
X0070115Y0441345D01*
X0069702Y0442343D02*
X0062000Y0442343D01*
X0062000Y0443342D02*
X0069700Y0443342D01*
X0069700Y0444341D02*
X0062000Y0444341D01*
X0062000Y0445339D02*
X0069700Y0445339D01*
X0069700Y0446338D02*
X0062000Y0446338D01*
X0062000Y0447336D02*
X0069700Y0447336D01*
X0069700Y0448335D02*
X0062000Y0448335D01*
X0062000Y0449333D02*
X0069700Y0449333D01*
X0069700Y0450332D02*
X0062000Y0450332D01*
X0062000Y0451330D02*
X0069700Y0451330D01*
X0069980Y0452329D02*
X0062000Y0452329D01*
X0062000Y0453327D02*
X0070394Y0453327D01*
X0070909Y0454326D02*
X0062000Y0454326D01*
X0062000Y0455324D02*
X0071907Y0455324D01*
X0073271Y0456323D02*
X0062000Y0456323D01*
X0062000Y0457321D02*
X0098000Y0457321D01*
X0098000Y0456323D02*
X0089729Y0456323D01*
X0091092Y0455324D02*
X0098000Y0455324D01*
X0098000Y0454326D02*
X0092091Y0454326D01*
X0092606Y0453327D02*
X0098000Y0453327D01*
X0098000Y0452329D02*
X0093020Y0452329D01*
X0093300Y0451330D02*
X0098000Y0451330D01*
X0098000Y0450332D02*
X0093300Y0450332D01*
X0093300Y0449333D02*
X0098000Y0449333D01*
X0098000Y0448335D02*
X0093300Y0448335D01*
X0093300Y0447336D02*
X0098000Y0447336D01*
X0098000Y0446338D02*
X0093300Y0446338D01*
X0093300Y0445339D02*
X0098000Y0445339D01*
X0098000Y0444341D02*
X0093300Y0444341D01*
X0093300Y0443342D02*
X0098000Y0443342D01*
X0098000Y0442343D02*
X0093298Y0442343D01*
X0092885Y0441345D02*
X0098000Y0441345D01*
X0098000Y0440346D02*
X0092471Y0440346D01*
X0091765Y0439348D02*
X0098000Y0439348D01*
X0098000Y0438349D02*
X0090766Y0438349D01*
X0088941Y0437351D02*
X0098000Y0437351D01*
X0102000Y0437351D02*
X0124559Y0437351D01*
X0125406Y0437000D02*
X0102000Y0437000D01*
X0102000Y0498461D01*
X0115511Y0498461D01*
X0114533Y0497483D01*
X0114000Y0496196D01*
X0114000Y0486804D01*
X0114533Y0485517D01*
X0115517Y0484533D01*
X0116804Y0484000D01*
X0123000Y0484000D01*
X0123000Y0472533D01*
X0122987Y0471770D01*
X0123000Y0471738D01*
X0123000Y0471704D01*
X0123292Y0470999D01*
X0123572Y0470290D01*
X0123596Y0470266D01*
X0123609Y0470234D01*
X0124148Y0469695D01*
X0136337Y0457100D01*
X0135647Y0457100D01*
X0133148Y0456065D01*
X0132000Y0454917D01*
X0130852Y0456065D01*
X0128353Y0457100D01*
X0125647Y0457100D01*
X0123148Y0456065D01*
X0121235Y0454152D01*
X0120200Y0451653D01*
X0120200Y0442347D01*
X0121235Y0439848D01*
X0123148Y0437935D01*
X0125406Y0437000D01*
X0122734Y0438349D02*
X0102000Y0438349D01*
X0102000Y0439348D02*
X0121735Y0439348D01*
X0121029Y0440346D02*
X0102000Y0440346D01*
X0102000Y0441345D02*
X0120615Y0441345D01*
X0120202Y0442343D02*
X0102000Y0442343D01*
X0102000Y0443342D02*
X0120200Y0443342D01*
X0120200Y0444341D02*
X0102000Y0444341D01*
X0102000Y0445339D02*
X0120200Y0445339D01*
X0120200Y0446338D02*
X0102000Y0446338D01*
X0102000Y0447336D02*
X0120200Y0447336D01*
X0120200Y0448335D02*
X0102000Y0448335D01*
X0102000Y0449333D02*
X0120200Y0449333D01*
X0120200Y0450332D02*
X0102000Y0450332D01*
X0102000Y0451330D02*
X0120200Y0451330D01*
X0120480Y0452329D02*
X0102000Y0452329D01*
X0102000Y0453327D02*
X0120894Y0453327D01*
X0121409Y0454326D02*
X0102000Y0454326D01*
X0102000Y0455324D02*
X0122407Y0455324D01*
X0123771Y0456323D02*
X0102000Y0456323D01*
X0102000Y0457321D02*
X0136123Y0457321D01*
X0135157Y0458320D02*
X0102000Y0458320D01*
X0102000Y0459318D02*
X0134190Y0459318D01*
X0133224Y0460317D02*
X0122479Y0460317D01*
X0123380Y0460690D02*
X0124810Y0462120D01*
X0125584Y0463989D01*
X0125584Y0466011D01*
X0124810Y0467880D01*
X0123380Y0469310D01*
X0121511Y0470084D01*
X0119489Y0470084D01*
X0117620Y0469310D01*
X0116190Y0467880D01*
X0115416Y0466011D01*
X0115416Y0463989D01*
X0116190Y0462120D01*
X0117620Y0460690D01*
X0119489Y0459916D01*
X0121511Y0459916D01*
X0123380Y0460690D01*
X0124005Y0461315D02*
X0132258Y0461315D01*
X0131291Y0462314D02*
X0124890Y0462314D01*
X0125304Y0463312D02*
X0130325Y0463312D01*
X0129359Y0464311D02*
X0125584Y0464311D01*
X0125584Y0465309D02*
X0128392Y0465309D01*
X0127426Y0466308D02*
X0125461Y0466308D01*
X0125048Y0467306D02*
X0126460Y0467306D01*
X0125494Y0468305D02*
X0124385Y0468305D01*
X0124527Y0469303D02*
X0123387Y0469303D01*
X0123568Y0470302D02*
X0102000Y0470302D01*
X0102000Y0471300D02*
X0123167Y0471300D01*
X0122996Y0472299D02*
X0102000Y0472299D01*
X0102000Y0473297D02*
X0123000Y0473297D01*
X0123000Y0474296D02*
X0102000Y0474296D01*
X0102000Y0475294D02*
X0123000Y0475294D01*
X0123000Y0476293D02*
X0102000Y0476293D01*
X0102000Y0477291D02*
X0123000Y0477291D01*
X0123000Y0478290D02*
X0102000Y0478290D01*
X0102000Y0479288D02*
X0123000Y0479288D01*
X0123000Y0480287D02*
X0102000Y0480287D01*
X0102000Y0481285D02*
X0123000Y0481285D01*
X0123000Y0482284D02*
X0102000Y0482284D01*
X0102000Y0483282D02*
X0123000Y0483282D01*
X0127000Y0483282D02*
X0163199Y0483282D01*
X0163182Y0483345D02*
X0164614Y0478231D01*
X0167374Y0473694D01*
X0171255Y0470069D01*
X0172079Y0469642D01*
X0171011Y0470084D01*
X0168989Y0470084D01*
X0167120Y0469310D01*
X0165690Y0467880D01*
X0164916Y0466011D01*
X0164916Y0463989D01*
X0165690Y0462120D01*
X0167120Y0460690D01*
X0168989Y0459916D01*
X0171011Y0459916D01*
X0172880Y0460690D01*
X0174310Y0462120D01*
X0175084Y0463989D01*
X0175084Y0466011D01*
X0174310Y0467880D01*
X0173053Y0469137D01*
X0175970Y0467626D01*
X0181169Y0466545D01*
X0186467Y0466908D01*
X0186467Y0466908D01*
X0191471Y0468686D01*
X0191471Y0468686D01*
X0195232Y0471341D01*
X0195232Y0437000D01*
X0188594Y0437000D01*
X0190852Y0437935D01*
X0192765Y0439848D01*
X0193800Y0442347D01*
X0193800Y0451653D01*
X0192765Y0454152D01*
X0190852Y0456065D01*
X0188353Y0457100D01*
X0185647Y0457100D01*
X0183148Y0456065D01*
X0182000Y0454917D01*
X0180852Y0456065D01*
X0178353Y0457100D01*
X0175647Y0457100D01*
X0173148Y0456065D01*
X0171235Y0454152D01*
X0170200Y0451653D01*
X0170200Y0442347D01*
X0171235Y0439848D01*
X0173148Y0437935D01*
X0175406Y0437000D01*
X0142000Y0437000D01*
X0142000Y0439083D01*
X0142765Y0439848D01*
X0143800Y0442347D01*
X0143800Y0451653D01*
X0142765Y0454152D01*
X0142000Y0454917D01*
X0142000Y0457000D01*
X0127000Y0472500D01*
X0127000Y0484333D01*
X0127483Y0484533D01*
X0128467Y0485517D01*
X0129000Y0486804D01*
X0129000Y0496196D01*
X0128467Y0497483D01*
X0127489Y0498461D01*
X0143011Y0498461D01*
X0142033Y0497483D01*
X0141500Y0496196D01*
X0141500Y0486804D01*
X0142033Y0485517D01*
X0143017Y0484533D01*
X0144304Y0484000D01*
X0153696Y0484000D01*
X0154983Y0484533D01*
X0155967Y0485517D01*
X0156500Y0486804D01*
X0156500Y0496196D01*
X0155967Y0497483D01*
X0154989Y0498461D01*
X0167539Y0498461D01*
X0167374Y0498306D01*
X0164614Y0493769D01*
X0163182Y0488655D01*
X0163182Y0483345D01*
X0163182Y0484281D02*
X0154374Y0484281D01*
X0155729Y0485279D02*
X0163182Y0485279D01*
X0163182Y0486278D02*
X0156282Y0486278D01*
X0156500Y0487277D02*
X0163182Y0487277D01*
X0163182Y0488275D02*
X0156500Y0488275D01*
X0156500Y0489274D02*
X0163355Y0489274D01*
X0163635Y0490272D02*
X0156500Y0490272D01*
X0156500Y0491271D02*
X0163914Y0491271D01*
X0164194Y0492269D02*
X0156500Y0492269D01*
X0156500Y0493268D02*
X0164474Y0493268D01*
X0164614Y0493769D02*
X0164614Y0493769D01*
X0164917Y0494266D02*
X0156500Y0494266D01*
X0156500Y0495265D02*
X0165524Y0495265D01*
X0166131Y0496263D02*
X0156472Y0496263D01*
X0156059Y0497262D02*
X0166738Y0497262D01*
X0167346Y0498260D02*
X0155190Y0498260D01*
X0163479Y0482284D02*
X0127000Y0482284D01*
X0127000Y0481285D02*
X0163759Y0481285D01*
X0164038Y0480287D02*
X0127000Y0480287D01*
X0127000Y0479288D02*
X0164318Y0479288D01*
X0164598Y0478290D02*
X0127000Y0478290D01*
X0127000Y0477291D02*
X0165186Y0477291D01*
X0164614Y0478231D02*
X0164614Y0478231D01*
X0165793Y0476293D02*
X0127000Y0476293D01*
X0127000Y0475294D02*
X0166400Y0475294D01*
X0167007Y0474296D02*
X0127000Y0474296D01*
X0127000Y0473297D02*
X0167798Y0473297D01*
X0167374Y0473694D02*
X0167374Y0473694D01*
X0168867Y0472299D02*
X0127195Y0472299D01*
X0128161Y0471300D02*
X0169936Y0471300D01*
X0171006Y0470302D02*
X0129127Y0470302D01*
X0130094Y0469303D02*
X0167113Y0469303D01*
X0166115Y0468305D02*
X0131060Y0468305D01*
X0132026Y0467306D02*
X0165452Y0467306D01*
X0165039Y0466308D02*
X0132992Y0466308D01*
X0133959Y0465309D02*
X0164916Y0465309D01*
X0164916Y0464311D02*
X0134925Y0464311D01*
X0135891Y0463312D02*
X0165196Y0463312D01*
X0165610Y0462314D02*
X0136858Y0462314D01*
X0137824Y0461315D02*
X0166495Y0461315D01*
X0168021Y0460317D02*
X0138790Y0460317D01*
X0139757Y0459318D02*
X0195232Y0459318D01*
X0195232Y0458320D02*
X0140723Y0458320D01*
X0141689Y0457321D02*
X0195232Y0457321D01*
X0195232Y0456323D02*
X0190229Y0456323D01*
X0191592Y0455324D02*
X0195232Y0455324D01*
X0195232Y0454326D02*
X0192591Y0454326D01*
X0193106Y0453327D02*
X0195232Y0453327D01*
X0195232Y0452329D02*
X0193520Y0452329D01*
X0193800Y0451330D02*
X0195232Y0451330D01*
X0195232Y0450332D02*
X0193800Y0450332D01*
X0193800Y0449333D02*
X0195232Y0449333D01*
X0195232Y0448335D02*
X0193800Y0448335D01*
X0193800Y0447336D02*
X0195232Y0447336D01*
X0195232Y0446338D02*
X0193800Y0446338D01*
X0193800Y0445339D02*
X0195232Y0445339D01*
X0195232Y0444341D02*
X0193800Y0444341D01*
X0193800Y0443342D02*
X0195232Y0443342D01*
X0195232Y0442343D02*
X0193798Y0442343D01*
X0193385Y0441345D02*
X0195232Y0441345D01*
X0195232Y0440346D02*
X0192971Y0440346D01*
X0192265Y0439348D02*
X0195232Y0439348D01*
X0195232Y0438349D02*
X0191266Y0438349D01*
X0189441Y0437351D02*
X0195232Y0437351D01*
X0195232Y0460317D02*
X0171979Y0460317D01*
X0173505Y0461315D02*
X0195232Y0461315D01*
X0195232Y0462314D02*
X0174390Y0462314D01*
X0174804Y0463312D02*
X0195232Y0463312D01*
X0195232Y0464311D02*
X0175084Y0464311D01*
X0175084Y0465309D02*
X0195232Y0465309D01*
X0195232Y0466308D02*
X0174961Y0466308D01*
X0174548Y0467306D02*
X0177508Y0467306D01*
X0175970Y0467626D02*
X0175970Y0467626D01*
X0174660Y0468305D02*
X0173885Y0468305D01*
X0171255Y0470069D02*
X0171255Y0470069D01*
X0173771Y0456323D02*
X0142000Y0456323D01*
X0142000Y0455324D02*
X0172407Y0455324D01*
X0171409Y0454326D02*
X0142591Y0454326D01*
X0143106Y0453327D02*
X0170894Y0453327D01*
X0170480Y0452329D02*
X0143520Y0452329D01*
X0143800Y0451330D02*
X0170200Y0451330D01*
X0170200Y0450332D02*
X0143800Y0450332D01*
X0143800Y0449333D02*
X0170200Y0449333D01*
X0170200Y0448335D02*
X0143800Y0448335D01*
X0143800Y0447336D02*
X0170200Y0447336D01*
X0170200Y0446338D02*
X0143800Y0446338D01*
X0143800Y0445339D02*
X0170200Y0445339D01*
X0170200Y0444341D02*
X0143800Y0444341D01*
X0143800Y0443342D02*
X0170200Y0443342D01*
X0170202Y0442343D02*
X0143798Y0442343D01*
X0143385Y0441345D02*
X0170615Y0441345D01*
X0171029Y0440346D02*
X0142971Y0440346D01*
X0142265Y0439348D02*
X0171735Y0439348D01*
X0172734Y0438349D02*
X0142000Y0438349D01*
X0142000Y0437351D02*
X0174559Y0437351D01*
X0180229Y0456323D02*
X0183771Y0456323D01*
X0182408Y0455324D02*
X0181592Y0455324D01*
X0181169Y0466545D02*
X0181169Y0466545D01*
X0187588Y0467306D02*
X0195232Y0467306D01*
X0195232Y0468305D02*
X0190398Y0468305D01*
X0192345Y0469303D02*
X0195232Y0469303D01*
X0195232Y0470302D02*
X0193760Y0470302D01*
X0195175Y0471300D02*
X0195232Y0471300D01*
X0167374Y0498306D02*
X0167374Y0498306D01*
X0142810Y0498260D02*
X0127690Y0498260D01*
X0128559Y0497262D02*
X0141941Y0497262D01*
X0141528Y0496263D02*
X0128972Y0496263D01*
X0129000Y0495265D02*
X0141500Y0495265D01*
X0141500Y0494266D02*
X0129000Y0494266D01*
X0129000Y0493268D02*
X0141500Y0493268D01*
X0141500Y0492269D02*
X0129000Y0492269D01*
X0129000Y0491271D02*
X0141500Y0491271D01*
X0141500Y0490272D02*
X0129000Y0490272D01*
X0129000Y0489274D02*
X0141500Y0489274D01*
X0141500Y0488275D02*
X0129000Y0488275D01*
X0129000Y0487277D02*
X0141500Y0487277D01*
X0141718Y0486278D02*
X0128782Y0486278D01*
X0128229Y0485279D02*
X0142271Y0485279D01*
X0143625Y0484281D02*
X0127000Y0484281D01*
X0116125Y0484281D02*
X0102000Y0484281D01*
X0102000Y0485279D02*
X0114771Y0485279D01*
X0114218Y0486278D02*
X0102000Y0486278D01*
X0102000Y0487277D02*
X0114000Y0487277D01*
X0114000Y0488275D02*
X0102000Y0488275D01*
X0102000Y0489274D02*
X0114000Y0489274D01*
X0114000Y0490272D02*
X0102000Y0490272D01*
X0102000Y0491271D02*
X0114000Y0491271D01*
X0114000Y0492269D02*
X0102000Y0492269D01*
X0102000Y0493268D02*
X0114000Y0493268D01*
X0114000Y0494266D02*
X0102000Y0494266D01*
X0102000Y0495265D02*
X0114000Y0495265D01*
X0114028Y0496263D02*
X0102000Y0496263D01*
X0102000Y0497262D02*
X0114441Y0497262D01*
X0115310Y0498260D02*
X0102000Y0498260D01*
X0098000Y0483282D02*
X0073500Y0483282D01*
X0073500Y0482284D02*
X0098000Y0482284D01*
X0098000Y0481285D02*
X0073500Y0481285D01*
X0073500Y0480287D02*
X0098000Y0480287D01*
X0098000Y0479288D02*
X0073500Y0479288D01*
X0073500Y0478290D02*
X0098000Y0478290D01*
X0098000Y0477291D02*
X0073291Y0477291D01*
X0072293Y0476293D02*
X0098000Y0476293D01*
X0098000Y0475294D02*
X0071294Y0475294D01*
X0070296Y0474296D02*
X0098000Y0474296D01*
X0098000Y0473297D02*
X0069297Y0473297D01*
X0068299Y0472299D02*
X0098000Y0472299D01*
X0098000Y0471300D02*
X0067300Y0471300D01*
X0066302Y0470302D02*
X0098000Y0470302D01*
X0098000Y0469303D02*
X0084887Y0469303D01*
X0084880Y0469310D02*
X0083011Y0470084D01*
X0080989Y0470084D01*
X0079120Y0469310D01*
X0077690Y0467880D01*
X0076916Y0466011D01*
X0076916Y0463989D01*
X0077690Y0462120D01*
X0079120Y0460690D01*
X0080989Y0459916D01*
X0083011Y0459916D01*
X0084880Y0460690D01*
X0086310Y0462120D01*
X0087084Y0463989D01*
X0087084Y0466011D01*
X0086310Y0467880D01*
X0084880Y0469310D01*
X0085885Y0468305D02*
X0098000Y0468305D01*
X0098000Y0467306D02*
X0086548Y0467306D01*
X0086961Y0466308D02*
X0098000Y0466308D01*
X0098000Y0465309D02*
X0087084Y0465309D01*
X0087084Y0464311D02*
X0098000Y0464311D01*
X0098000Y0463312D02*
X0086804Y0463312D01*
X0086390Y0462314D02*
X0098000Y0462314D01*
X0098000Y0461315D02*
X0085505Y0461315D01*
X0083979Y0460317D02*
X0098000Y0460317D01*
X0098000Y0459318D02*
X0062000Y0459318D01*
X0062000Y0458320D02*
X0098000Y0458320D01*
X0102000Y0460317D02*
X0118521Y0460317D01*
X0116995Y0461315D02*
X0102000Y0461315D01*
X0102000Y0462314D02*
X0116110Y0462314D01*
X0115696Y0463312D02*
X0102000Y0463312D01*
X0102000Y0464311D02*
X0115416Y0464311D01*
X0115416Y0465309D02*
X0102000Y0465309D01*
X0102000Y0466308D02*
X0115539Y0466308D01*
X0115952Y0467306D02*
X0102000Y0467306D01*
X0102000Y0468305D02*
X0116615Y0468305D01*
X0117613Y0469303D02*
X0102000Y0469303D01*
X0088625Y0484281D02*
X0073500Y0484281D01*
X0073500Y0485279D02*
X0087271Y0485279D01*
X0086718Y0486278D02*
X0073782Y0486278D01*
X0074000Y0487277D02*
X0086500Y0487277D01*
X0086500Y0488275D02*
X0074000Y0488275D01*
X0074000Y0489274D02*
X0086500Y0489274D01*
X0086500Y0490272D02*
X0074000Y0490272D01*
X0074000Y0491271D02*
X0086500Y0491271D01*
X0086500Y0492269D02*
X0074000Y0492269D01*
X0074000Y0493268D02*
X0086500Y0493268D01*
X0086500Y0494266D02*
X0074000Y0494266D01*
X0074000Y0495265D02*
X0086500Y0495265D01*
X0086528Y0496263D02*
X0073972Y0496263D01*
X0073559Y0497262D02*
X0086941Y0497262D01*
X0087810Y0498260D02*
X0073500Y0498260D01*
X0069500Y0484000D02*
X0069500Y0479157D01*
X0059734Y0469391D01*
X0058609Y0468266D01*
X0058000Y0466796D01*
X0058000Y0437000D01*
X0038594Y0437000D01*
X0040852Y0437935D01*
X0042765Y0439848D01*
X0043800Y0442347D01*
X0043800Y0451653D01*
X0042765Y0454152D01*
X0040852Y0456065D01*
X0038353Y0457100D01*
X0035647Y0457100D01*
X0033148Y0456065D01*
X0032000Y0454917D01*
X0030852Y0456065D01*
X0028353Y0457100D01*
X0025647Y0457100D01*
X0023148Y0456065D01*
X0021235Y0454152D01*
X0020200Y0451653D01*
X0020200Y0442347D01*
X0021235Y0439848D01*
X0023148Y0437935D01*
X0025406Y0437000D01*
X0005500Y0437000D01*
X0005500Y0471241D01*
X0006755Y0470069D01*
X0011470Y0467626D01*
X0016669Y0466545D01*
X0021967Y0466908D01*
X0021967Y0466908D01*
X0026971Y0468686D01*
X0026971Y0468686D01*
X0031310Y0471749D01*
X0034661Y0475868D01*
X0034661Y0475868D01*
X0036777Y0480739D01*
X0037500Y0486000D01*
X0036777Y0491261D01*
X0034661Y0496132D01*
X0032767Y0498461D01*
X0060511Y0498461D01*
X0059533Y0497483D01*
X0059000Y0496196D01*
X0059000Y0486804D01*
X0059533Y0485517D01*
X0060517Y0484533D01*
X0061804Y0484000D01*
X0069500Y0484000D01*
X0069500Y0483282D02*
X0037126Y0483282D01*
X0036989Y0482284D02*
X0069500Y0482284D01*
X0069500Y0481285D02*
X0036852Y0481285D01*
X0036777Y0480739D02*
X0036777Y0480739D01*
X0036581Y0480287D02*
X0069500Y0480287D01*
X0069500Y0479288D02*
X0036147Y0479288D01*
X0035713Y0478290D02*
X0068633Y0478290D01*
X0067635Y0477291D02*
X0035279Y0477291D01*
X0034846Y0476293D02*
X0066636Y0476293D01*
X0065638Y0475294D02*
X0034194Y0475294D01*
X0033382Y0474296D02*
X0064639Y0474296D01*
X0063640Y0473297D02*
X0032570Y0473297D01*
X0031757Y0472299D02*
X0062642Y0472299D01*
X0061643Y0471300D02*
X0030675Y0471300D01*
X0031310Y0471749D02*
X0031310Y0471749D01*
X0031310Y0471749D01*
X0029260Y0470302D02*
X0060645Y0470302D01*
X0059646Y0469303D02*
X0027845Y0469303D01*
X0025898Y0468305D02*
X0044314Y0468305D01*
X0044989Y0468584D02*
X0043120Y0467810D01*
X0041690Y0466380D01*
X0040916Y0464511D01*
X0040916Y0462489D01*
X0041690Y0460620D01*
X0043120Y0459190D01*
X0044989Y0458416D01*
X0047011Y0458416D01*
X0048880Y0459190D01*
X0050310Y0460620D01*
X0051084Y0462489D01*
X0051084Y0464511D01*
X0050310Y0466380D01*
X0048880Y0467810D01*
X0047011Y0468584D01*
X0044989Y0468584D01*
X0047686Y0468305D02*
X0058648Y0468305D01*
X0058212Y0467306D02*
X0049384Y0467306D01*
X0050340Y0466308D02*
X0058000Y0466308D01*
X0058000Y0465309D02*
X0050754Y0465309D01*
X0051084Y0464311D02*
X0058000Y0464311D01*
X0058000Y0463312D02*
X0051084Y0463312D01*
X0051012Y0462314D02*
X0058000Y0462314D01*
X0058000Y0461315D02*
X0050598Y0461315D01*
X0050007Y0460317D02*
X0058000Y0460317D01*
X0058000Y0459318D02*
X0049008Y0459318D01*
X0042992Y0459318D02*
X0005500Y0459318D01*
X0005500Y0458320D02*
X0058000Y0458320D01*
X0058000Y0457321D02*
X0005500Y0457321D01*
X0005500Y0456323D02*
X0023771Y0456323D01*
X0022407Y0455324D02*
X0005500Y0455324D01*
X0005500Y0454326D02*
X0021409Y0454326D01*
X0020894Y0453327D02*
X0005500Y0453327D01*
X0005500Y0452329D02*
X0020480Y0452329D01*
X0020200Y0451330D02*
X0005500Y0451330D01*
X0005500Y0450332D02*
X0020200Y0450332D01*
X0020200Y0449333D02*
X0005500Y0449333D01*
X0005500Y0448335D02*
X0020200Y0448335D01*
X0020200Y0447336D02*
X0005500Y0447336D01*
X0005500Y0446338D02*
X0020200Y0446338D01*
X0020200Y0445339D02*
X0005500Y0445339D01*
X0005500Y0444341D02*
X0020200Y0444341D01*
X0020200Y0443342D02*
X0005500Y0443342D01*
X0005500Y0442343D02*
X0020202Y0442343D01*
X0020615Y0441345D02*
X0005500Y0441345D01*
X0005500Y0440346D02*
X0021029Y0440346D01*
X0021735Y0439348D02*
X0005500Y0439348D01*
X0005500Y0438349D02*
X0022734Y0438349D01*
X0024559Y0437351D02*
X0005500Y0437351D01*
X0005500Y0460317D02*
X0041993Y0460317D01*
X0041402Y0461315D02*
X0005500Y0461315D01*
X0005500Y0462314D02*
X0040988Y0462314D01*
X0040916Y0463312D02*
X0005500Y0463312D01*
X0005500Y0464311D02*
X0040916Y0464311D01*
X0041246Y0465309D02*
X0005500Y0465309D01*
X0005500Y0466308D02*
X0041660Y0466308D01*
X0042616Y0467306D02*
X0023088Y0467306D01*
X0016669Y0466545D02*
X0016669Y0466545D01*
X0013008Y0467306D02*
X0005500Y0467306D01*
X0005500Y0468305D02*
X0010160Y0468305D01*
X0011470Y0467626D02*
X0011470Y0467626D01*
X0008233Y0469303D02*
X0005500Y0469303D01*
X0005500Y0470302D02*
X0006506Y0470302D01*
X0006755Y0470069D02*
X0006755Y0470069D01*
X0030229Y0456323D02*
X0033771Y0456323D01*
X0032408Y0455324D02*
X0031592Y0455324D01*
X0040229Y0456323D02*
X0058000Y0456323D01*
X0058000Y0455324D02*
X0041592Y0455324D01*
X0042591Y0454326D02*
X0058000Y0454326D01*
X0058000Y0453327D02*
X0043106Y0453327D01*
X0043520Y0452329D02*
X0058000Y0452329D01*
X0058000Y0451330D02*
X0043800Y0451330D01*
X0043800Y0450332D02*
X0058000Y0450332D01*
X0058000Y0449333D02*
X0043800Y0449333D01*
X0043800Y0448335D02*
X0058000Y0448335D01*
X0058000Y0447336D02*
X0043800Y0447336D01*
X0043800Y0446338D02*
X0058000Y0446338D01*
X0058000Y0445339D02*
X0043800Y0445339D01*
X0043800Y0444341D02*
X0058000Y0444341D01*
X0058000Y0443342D02*
X0043800Y0443342D01*
X0043798Y0442343D02*
X0058000Y0442343D01*
X0058000Y0441345D02*
X0043385Y0441345D01*
X0042971Y0440346D02*
X0058000Y0440346D01*
X0058000Y0439348D02*
X0042265Y0439348D01*
X0041266Y0438349D02*
X0058000Y0438349D01*
X0058000Y0437351D02*
X0039441Y0437351D01*
X0037264Y0484281D02*
X0061125Y0484281D01*
X0059771Y0485279D02*
X0037401Y0485279D01*
X0037462Y0486278D02*
X0059218Y0486278D01*
X0059000Y0487277D02*
X0037325Y0487277D01*
X0037187Y0488275D02*
X0059000Y0488275D01*
X0059000Y0489274D02*
X0037050Y0489274D01*
X0036913Y0490272D02*
X0059000Y0490272D01*
X0059000Y0491271D02*
X0036773Y0491271D01*
X0036777Y0491261D02*
X0036777Y0491261D01*
X0036339Y0492269D02*
X0059000Y0492269D01*
X0059000Y0493268D02*
X0035905Y0493268D01*
X0035472Y0494266D02*
X0059000Y0494266D01*
X0059000Y0495265D02*
X0035038Y0495265D01*
X0034661Y0496132D02*
X0034661Y0496132D01*
X0034554Y0496263D02*
X0059028Y0496263D01*
X0059441Y0497262D02*
X0033742Y0497262D01*
X0032930Y0498260D02*
X0060310Y0498260D01*
X0065303Y0469303D02*
X0079113Y0469303D01*
X0078115Y0468305D02*
X0064305Y0468305D01*
X0063306Y0467306D02*
X0077452Y0467306D01*
X0077039Y0466308D02*
X0062308Y0466308D01*
X0062000Y0465309D02*
X0076916Y0465309D01*
X0076916Y0464311D02*
X0062000Y0464311D01*
X0062000Y0463312D02*
X0077196Y0463312D01*
X0077610Y0462314D02*
X0062000Y0462314D01*
X0062000Y0461315D02*
X0078495Y0461315D01*
X0080021Y0460317D02*
X0062000Y0460317D01*
X0079729Y0456323D02*
X0083271Y0456323D01*
X0081908Y0455324D02*
X0081092Y0455324D01*
X0130229Y0456323D02*
X0133771Y0456323D01*
X0132408Y0455324D02*
X0131592Y0455324D01*
D24*
X0077000Y0017000D02*
X0062780Y0017000D01*
M02*
