%
M48
M72
T01C0.01969
T02C0.02362
T03C0.03150
T04C0.03937
T05C0.04000
T06C0.04400
T07C0.04724
T08C0.11811
T09C0.13000
%
T01
X24000Y47000
X24000Y52000
X24000Y57000
X20000Y73500
X30500Y52000
X37500Y66500
X44500Y66500
X44500Y73500
X46000Y96000
X34000Y88500
X34000Y127000
X22000Y146000
X15000Y186000
X12500Y204000
X15000Y230500
X10500Y258500
X27000Y278000
X44100Y226800
X38300Y216300
X41600Y197000
X41000Y189500
X41000Y185000
X44500Y183000
X41000Y179000
X44500Y177000
X53500Y176200
X58500Y176000
X61000Y179500
X65000Y177500
X68500Y179500
X74000Y164000
X75500Y167500
X68000Y156500
X64500Y155000
X54000Y137500
X46000Y146000
X26300Y193000
X54000Y247000
X49000Y280000
X64000Y287000
X68500Y324000
X69500Y349500
X86000Y324000
X98500Y349500
X115000Y324000
X127500Y349500
X144000Y324000
X129000Y286500
X121500Y264000
X130500Y213000
X133000Y187000
X133000Y177000
X133000Y167000
X126000Y164000
X137000Y152000
X135000Y134000
X131500Y114000
X135000Y95000
X141000Y114000
X147000Y93000
X153000Y102000
X158000Y110000
X158000Y119500
X166000Y97000
X167000Y109000
X177000Y99000
X182000Y102000
X189000Y85500
X192000Y90500
X191000Y96000
X183000Y75000
X179000Y72000
X176000Y81000
X165000Y52000
X159000Y52000
X159000Y47000
X159000Y57000
X155000Y72000
X164000Y86000
X157000Y93000
X160000Y150000
X172500Y150000
X182000Y127000
X187000Y52000
X187000Y43000
X134000Y19000
X134000Y12000
X127000Y31000
X122000Y31000
X117000Y31000
X113000Y43000
X113000Y52000
X104500Y72000
X116000Y98000
X119000Y85000
X121500Y81500
X121000Y112000
X119000Y121000
X120000Y134000
X113500Y157000
X106000Y157000
X106000Y164000
X99000Y134000
X91500Y161500
X92500Y187000
X92500Y193500
X76000Y216000
X70500Y225500
X86000Y264000
X86000Y271500
X91000Y289000
X110000Y195000
X85500Y135000
X76500Y109500
X73500Y84000
X79500Y72000
X84000Y57000
X84000Y52000
X84000Y47000
X90000Y52000
X54500Y51000
X54500Y44000
X156500Y251500
X170000Y465000
X120500Y465000
X82000Y465000
X46000Y463500
X40000Y349500
T02
X18000Y180000
X18000Y175000
X18000Y170000
X18000Y165000
X18000Y160000
X13000Y160000
X13000Y165000
X13000Y170000
X13000Y175000
X13000Y180000
T03
X120657Y222000
X140343Y222000
X192000Y132000
X192000Y122000
T04
X192000Y142000
X192000Y152000
T05
X187000Y167000
X187000Y177000
X187000Y187000
X187000Y197000
X187000Y217000
X187000Y227000
X187000Y237000
X187000Y247000
X187000Y257000
X187000Y267000
X187000Y277000
X187000Y287000
X177000Y287000
X177000Y277000
X177000Y267000
X177000Y257000
X177000Y247000
X177000Y237000
X177000Y227000
X177000Y217000
X177000Y197000
X177000Y187000
X177000Y177000
X177000Y167000
X92000Y307000
X82000Y307000
X72000Y307000
X62000Y307000
T06
X66500Y447000
X76500Y447000
X86500Y447000
X117000Y447000
X127000Y447000
X137000Y447000
X167000Y447000
X177000Y447000
X187000Y447000
X37000Y447000
X27000Y447000
X17000Y447000
T07
X52720Y491500
X66500Y491500
X80220Y491500
X94000Y491500
X107720Y491500
X121500Y491500
X135220Y491500
X149000Y491500
X18000Y353000
X18000Y339220
X18000Y325000
X18000Y311220
X49000Y17000
X62780Y17000
X77000Y17000
X90780Y17000
T08
X18000Y18000
X182500Y18000
X182500Y486000
X18000Y486000
T09
X27000Y378000
X76500Y378000
X127000Y378000
X177000Y378000
M30
